<?xml version="1.0" encoding="utf-8"?>
<!-- Generator: Adobe Illustrator 22.1.0, SVG Export Plug-In . SVG Version: 6.00 Build 0)  -->
<svg version="1.1" xmlns="http://www.w3.org/2000/svg" xmlns:xlink="http://www.w3.org/1999/xlink" x="0px" y="0px" width="373.8px"
	 height="527.1px" viewBox="0 0 373.8 527.1" style="enable-background:new 0 0 373.8 527.1;" xml:space="preserve">
<style type="text/css">
	.st0{fill:#FBB31C;}
	.st1{opacity:0.2;}
	.st2{clip-path:url(#SVGID_2_);}
	.st3{fill:#49494A;}
	.st4{fill:#2A3844;}
	.st5{clip-path:url(#SVGID_4_);}
	.st6{fill:#D1D3D4;}
	.st7{fill:none;stroke:#14212B;stroke-width:2;stroke-miterlimit:10;}
	.st8{fill:#14212B;}
	.st9{fill:#D0D2D3;}
	.st10{fill:#D0D2D3;stroke:#231F20;stroke-width:3.22;stroke-linecap:round;stroke-linejoin:round;stroke-miterlimit:10;}
	.st11{fill:#231F20;}
	.st12{fill:#FFFFFF;}
	.st13{fill:#F4F5F5;}
	.st14{clip-path:url(#SVGID_6_);}
	.st15{fill:#DDDDDC;}
	.st16{fill:#465D6E;}
	.st17{fill:none;stroke:#4F6373;stroke-width:1.8655;stroke-miterlimit:10;}
	.st18{fill:none;stroke:#4F6373;stroke-width:2.3765;stroke-miterlimit:10;}
	.st19{opacity:0.27;clip-path:url(#SVGID_8_);}
	.st20{opacity:0.27;}
	.st21{clip-path:url(#SVGID_10_);}
	.st22{opacity:0.27;clip-path:url(#SVGID_12_);}
	.st23{clip-path:url(#SVGID_14_);}
	.st24{clip-path:url(#SVGID_16_);}
	.st25{opacity:5.000000e-02;}
	.st26{clip-path:url(#SVGID_18_);}
	.st27{fill:none;stroke:#FFFFFF;stroke-miterlimit:10;}
	.st28{fill:#1D262D;}
	.st29{fill:#EEF9FF;}
	.st30{fill:none;stroke:#FBB31C;stroke-width:3;stroke-miterlimit:10;}
	.st31{clip-path:url(#SVGID_20_);}
	.st32{clip-path:url(#SVGID_22_);}
	.st33{fill:#4F6373;}
	.st34{fill:#8D8064;}
	.st35{fill:#D9D7AB;}
	.st36{fill:none;stroke:#FBB31C;stroke-width:2;stroke-miterlimit:10;}
	.st37{fill:none;stroke:#14212B;stroke-miterlimit:10;}
	.st38{fill:#ED1C24;}
	.st39{opacity:0.98;fill:#2A3844;}
	.st40{opacity:0.3;}
	.st41{clip-path:url(#SVGID_24_);}
	.st42{opacity:0.98;}
	.st43{fill:none;stroke:#2A3844;stroke-width:3;stroke-linecap:round;stroke-miterlimit:10;}
	.st44{clip-path:url(#SVGID_26_);}
</style>
<g id="BG">
</g>
<g id="Design">
</g>
<g id="Modal">
	<g class="st40">
		<defs>
			<rect id="SVGID_25_" y="0" class="st40" width="465.4" height="606.1"/>
		</defs>
		<clipPath id="SVGID_2_">
			<use xlink:href="#SVGID_25_"  style="overflow:visible;"/>
		</clipPath>
		<g class="st2">
			<path class="st15" d="M-42.5,250.5c0.8-1.4,1.7-2.8,2.5-4.2c0.8-1.4,1.6-2.8,2.4-4.3c0.8-1.4,1.5-2.9,2.3-4.3
				c0.7-1.4,1.5-2.9,2.2-4.4c0.7-1.5,1.4-2.9,2.1-4.4c0.7-1.5,1.3-3,2-4.5c0.6-1.5,1.3-3,1.9-4.5c0.6-1.5,1.2-3.1,1.7-4.6
				c0.6-1.5,1.1-3.1,1.6-4.7c0.5-1.6,1-3.1,1.5-4.7c0.5-1.6,1-3.2,1.4-4.8c0.5-1.6,0.9-3.2,1.3-4.8c0.4-1.6,0.8-3.2,1.2-4.9
				c0.4-1.6,0.7-3.3,1.1-4.9c0.3-1.6,0.7-3.3,0.9-4.9c0.3-1.7,0.6-3.3,0.8-5c0.3-1.7,0.5-3.3,0.7-5c0.2-1.7,0.4-3.4,0.6-5.1
				c0.2-1.7,0.3-3.4,0.5-5.1c0.1-1.7,0.2-3.4,0.3-5.1c0.1-1.7,0.2-3.4,0.2-5.2c0-1.6,0.1-3.3,0.1-4.9c0-0.1,0.1-0.2,0.1-0.3
				c0-1.3,0-2.6,0-3.9c0-1.3,0.1-2.6,0.1-3.8c0.1-1.3,0.1-2.5,0.2-3.8c0.1-1.3,0.2-2.5,0.3-3.8c0.1-1.3,0.3-2.5,0.4-3.8
				c0.2-1.2,0.3-2.5,0.5-3.7c0.2-1.2,0.4-2.5,0.6-3.7c0.2-1.2,0.5-2.5,0.7-3.7c0.2-1.2,0.5-2.4,0.8-3.6c0.3-1.2,0.6-2.4,0.9-3.6
				c0.3-1.2,0.6-2.4,1-3.6c0.3-1.2,0.7-2.4,1.1-3.5c0.4-1.2,0.7-2.3,1.1-3.5c0.4-1.2,0.8-2.3,1.2-3.5c0.4-1.1,0.9-2.3,1.3-3.4
				c0.4-1.1,0.9-2.3,1.4-3.4c0.5-1.1,1-2.2,1.5-3.3c0.5-1.1,1-2.2,1.5-3.3C2,80.1,2.5,79,3.1,77.9c0.6-1.1,1.1-2.1,1.7-3.2
				c0.6-1.1,1.2-2.1,1.8-3.2c0.6-1,1.2-2.1,1.8-3.1c0.6-1,1.3-2,1.9-3.1c0.6-1,1.3-2,2-3c0.7-1,1.4-2,2.1-3c0.7-1,1.4-1.9,2.1-2.9
				c0.7-1,1.4-1.9,2.2-2.9c0.7-0.9,1.5-1.9,2.3-2.8c0.8-0.9,1.5-1.8,2.3-2.7c0.8-0.9,1.6-1.8,2.4-2.7c0.8-0.9,1.6-1.8,2.4-2.6
				c0.8-0.9,1.7-1.7,2.5-2.6c0.8-0.8,1.7-1.7,2.6-2.5c0.9-0.8,1.7-1.6,2.6-2.4c0.9-0.8,1.8-1.6,2.7-2.4c0.9-0.8,1.8-1.6,2.7-2.3
				c0.9-0.8,1.9-1.5,2.8-2.3c0.9-0.7,1.9-1.5,2.9-2.2c1-0.7,1.9-1.4,2.9-2.1c1-0.7,2-1.4,3-2.1c1-0.7,2-1.3,3-2c1-0.6,2-1.3,3.1-1.9
				c1-0.6,2.1-1.2,3.1-1.8c1-0.6,2.1-1.2,3.2-1.8c1.1-0.6,2.1-1.1,3.2-1.7c1.1-0.6,2.2-1.1,3.2-1.6c1.1-0.5,2.2-1,3.3-1.5
				c1.1-0.5,2.2-1,3.3-1.5c1.1-0.5,2.2-0.9,3.4-1.4c1.1-0.4,2.3-0.9,3.4-1.3c1.1-0.4,2.3-0.8,3.5-1.2c1.2-0.4,2.3-0.8,3.5-1.1
				c1.2-0.4,2.3-0.7,3.5-1.1c1.2-0.3,2.4-0.7,3.6-1c1.2-0.3,2.4-0.6,3.6-0.9c1.2-0.3,2.4-0.5,3.6-0.8c1.2-0.2,2.4-0.5,3.7-0.7
				c1.2-0.2,2.5-0.4,3.7-0.6c1.2-0.2,2.5-0.4,3.7-0.5c1.2-0.2,2.5-0.3,3.8-0.4c1.3-0.1,2.5-0.2,3.8-0.3c1.3-0.1,2.5-0.2,3.8-0.2
				c1.3-0.1,2.6-0.1,3.8-0.1c2.6-0.1,5.2-0.1,7.7,0c1.7,0,3.2-1.3,3.2-3c0-1.7-1.3-3.2-3-3.2c-2.7-0.1-5.4-0.1-8,0
				c-1.3,0-2.7,0.1-4,0.2c-1.3,0.1-2.7,0.2-4,0.3c-1.3,0.1-2.6,0.2-3.9,0.4c-1.3,0.1-2.6,0.3-3.9,0.4c-1.3,0.2-2.6,0.3-3.9,0.5
				c-1.3,0.2-2.6,0.4-3.9,0.6c-1.3,0.2-2.6,0.5-3.8,0.7c-1.3,0.3-2.5,0.5-3.8,0.8c-1.3,0.3-2.5,0.6-3.8,0.9c-1.2,0.3-2.5,0.7-3.7,1
				c-1.2,0.4-2.5,0.7-3.7,1.1c-1.2,0.4-2.4,0.8-3.6,1.2c-1.2,0.4-2.4,0.8-3.6,1.3c-1.2,0.4-2.4,0.9-3.6,1.4
				c-1.2,0.5-2.4,0.9-3.5,1.4c-1.2,0.5-2.3,1-3.5,1.5c-1.1,0.5-2.3,1.1-3.4,1.6c-1.1,0.5-2.3,1.1-3.4,1.7c-1.1,0.6-2.2,1.2-3.3,1.8
				c-1.1,0.6-2.2,1.2-3.3,1.8c-1.1,0.6-2.2,1.3-3.2,1.9c-1.1,0.7-2.1,1.3-3.2,2c-1.1,0.7-2.1,1.4-3.1,2.1c-1,0.7-2.1,1.4-3.1,2.1
				c-1,0.7-2,1.5-3,2.2c-1,0.7-2,1.5-3,2.3c-1,0.8-2,1.6-2.9,2.3c-1,0.8-1.9,1.6-2.9,2.4c-0.9,0.8-1.9,1.6-2.8,2.5
				c-0.9,0.8-1.8,1.7-2.7,2.5c-0.9,0.9-1.8,1.7-2.7,2.6c-0.9,0.9-1.8,1.8-2.6,2.7c-0.9,0.9-1.7,1.8-2.5,2.7
				c-0.8,0.9-1.7,1.9-2.5,2.8c-0.8,0.9-1.6,1.9-2.4,2.9c-0.8,1-1.6,1.9-2.3,2.9c-0.8,1-1.5,2-2.3,3c-0.7,1-1.5,2-2.2,3
				c-0.7,1-1.4,2-2.1,3.1C6.4,59.9,5.7,61,5,62c-0.7,1.1-1.3,2.1-2,3.2c-0.7,1.1-1.3,2.2-1.9,3.2c-0.6,1.1-1.2,2.2-1.8,3.3
				c-0.6,1.1-1.2,2.2-1.8,3.3c-0.6,1.1-1.1,2.3-1.7,3.4c-0.5,1.1-1.1,2.3-1.6,3.4c-0.5,1.2-1,2.3-1.5,3.5c-0.5,1.2-1,2.3-1.4,3.5
				c-0.5,1.2-0.9,2.4-1.4,3.6c-0.4,1.2-0.9,2.4-1.3,3.6c-0.4,1.2-0.8,2.4-1.2,3.6c-0.4,1.2-0.7,2.4-1.1,3.7c-0.4,1.2-0.7,2.5-1,3.7
				c-0.3,1.2-0.6,2.5-0.9,3.8c-0.3,1.3-0.6,2.5-0.8,3.8c-0.3,1.3-0.5,2.5-0.7,3.8c-0.2,1.3-0.4,2.6-0.6,3.9
				c-0.2,1.3-0.4,2.6-0.5,3.9c-0.2,1.3-0.3,2.6-0.4,3.9c-0.1,1.3-0.3,2.6-0.4,3.9c-0.1,1.3-0.2,2.6-0.3,4c-0.1,1.3-0.1,2.7-0.2,4
				c0,1.2,0,2.5,0,3.7c0,0.1-0.1,0.2-0.1,0.3c0,1.7,0,3.4-0.1,5c0,1.7-0.1,3.3-0.2,5c-0.1,1.7-0.2,3.3-0.3,5
				c-0.1,1.7-0.3,3.3-0.4,4.9c-0.2,1.6-0.4,3.3-0.6,4.9c-0.2,1.6-0.4,3.2-0.7,4.9c-0.2,1.6-0.5,3.2-0.8,4.8
				c-0.3,1.6-0.6,3.2-0.9,4.8c-0.3,1.6-0.7,3.2-1,4.7c-0.4,1.6-0.7,3.1-1.1,4.7c-0.4,1.6-0.8,3.1-1.3,4.7c-0.4,1.5-0.9,3.1-1.4,4.6
				c-0.5,1.5-1,3-1.5,4.6c-0.5,1.5-1,3-1.6,4.5c-0.5,1.5-1.1,3-1.7,4.5c-0.6,1.5-1.2,2.9-1.8,4.4c-0.6,1.5-1.3,2.9-1.9,4.3
				c-0.7,1.4-1.3,2.9-2,4.3c-0.7,1.4-1.4,2.8-2.1,4.2c-0.7,1.4-1.5,2.8-2.2,4.2c-0.8,1.4-1.5,2.8-2.3,4.1c-0.8,1.4-1.6,2.7-2.4,4.1
				c-0.8,1.3-1.6,2.7-2.5,4c-0.8,1.3-1.7,2.6-2.6,3.9c-0.9,1.3-1.8,2.6-2.7,3.9c-1,1.4-0.7,3.4,0.7,4.4c0.6,0.4,1.2,0.6,1.8,0.6
				c1,0,1.9-0.5,2.6-1.3c0.9-1.3,1.9-2.6,2.8-4c0.9-1.3,1.8-2.7,2.7-4.1C-44.2,253.2-43.3,251.9-42.5,250.5z"/>
			<path class="st15" d="M-35.1,280.2c1.1-1.4,2.1-2.9,3.2-4.4c1-1.5,2.1-2.9,3.1-4.4c1-1.5,2-3,3-4.5c1-1.5,1.9-3,2.9-4.6
				c0.9-1.5,1.9-3.1,2.8-4.7c0.9-1.6,1.8-3.1,2.6-4.7c0.9-1.6,1.7-3.2,2.5-4.8c0.8-1.6,1.6-3.2,2.4-4.9c0.8-1.6,1.6-3.3,2.3-4.9
				c0.7-1.7,1.5-3.3,2.2-5c0.7-1.7,1.4-3.4,2.1-5.1c0.7-1.7,1.3-3.4,1.9-5.1c0.6-1.7,1.2-3.4,1.8-5.2c0.6-1.7,1.2-3.5,1.7-5.2
				c0.5-1.8,1.1-3.5,1.6-5.3c0.5-1.8,1-3.6,1.4-5.3c0.5-1.8,0.9-3.6,1.3-5.4c0.4-1.8,0.8-3.6,1.2-5.4c0.4-1.8,0.7-3.7,1.1-5.5
				c0.3-1.8,0.6-3.7,0.9-5.5c0.3-1.9,0.5-3.7,0.8-5.6c0.2-1.9,0.5-3.7,0.6-5.6c0.2-1.9,0.4-3.8,0.5-5.7c0.1-1.9,0.3-3.8,0.4-5.7
				c0.1-1.9,0.2-3.8,0.2-5.7c0-1.8,0.1-3.7,0.1-5.5c0-0.1,0.1-0.2,0.1-0.3c0-1.1,0-2.2,0-3.3c0-1.1,0.1-2.2,0.1-3.3
				c0.1-1.1,0.1-2.2,0.2-3.2c0.1-1.1,0.2-2.1,0.3-3.2c0.1-1.1,0.2-2.1,0.4-3.2c0.1-1.1,0.3-2.1,0.4-3.2c0.2-1.1,0.3-2.1,0.5-3.1
				c0.2-1,0.4-2.1,0.6-3.1c0.2-1,0.4-2.1,0.7-3.1c0.2-1,0.5-2,0.7-3.1c0.3-1,0.5-2,0.8-3c0.3-1,0.6-2,0.9-3c0.3-1,0.6-2,1-3
				c0.3-1,0.7-2,1-2.9c0.4-1,0.7-1.9,1.1-2.9c0.4-1,0.8-1.9,1.2-2.9c0.4-0.9,0.8-1.9,1.2-2.8c0.4-0.9,0.9-1.9,1.3-2.8
				c0.4-0.9,0.9-1.8,1.4-2.8c0.5-0.9,0.9-1.8,1.4-2.7c0.5-0.9,1-1.8,1.5-2.7c0.5-0.9,1-1.8,1.6-2.6c0.5-0.9,1.1-1.7,1.6-2.6
				c0.6-0.9,1.1-1.7,1.7-2.6c0.6-0.8,1.2-1.7,1.7-2.5c0.6-0.8,1.2-1.7,1.8-2.5c0.6-0.8,1.2-1.6,1.9-2.4c0.6-0.8,1.3-1.6,1.9-2.4
				c1.1-1.3,0.9-3.3-0.4-4.4c-1.3-1.1-3.3-0.9-4.4,0.4c-0.7,0.8-1.3,1.7-2,2.5c-0.7,0.8-1.3,1.7-1.9,2.5c-0.6,0.9-1.3,1.7-1.9,2.6
				c-0.6,0.9-1.2,1.7-1.8,2.6c-0.6,0.9-1.2,1.8-1.8,2.7c-0.6,0.9-1.1,1.8-1.7,2.7c-0.6,0.9-1.1,1.8-1.6,2.8
				c-0.5,0.9-1.1,1.9-1.6,2.8c-0.5,0.9-1,1.9-1.5,2.9c-0.5,1-1,1.9-1.4,2.9c-0.5,1-0.9,1.9-1.4,2.9s-0.9,2-1.3,3c-0.4,1-0.8,2-1.2,3
				c-0.4,1-0.8,2-1.2,3c-0.4,1-0.7,2-1.1,3.1c-0.3,1-0.7,2.1-1,3.1c-0.3,1-0.6,2.1-0.9,3.1c-0.3,1.1-0.6,2.1-0.9,3.2
				c-0.3,1.1-0.5,2.1-0.8,3.2c-0.2,1.1-0.5,2.2-0.7,3.2c-0.2,1.1-0.4,2.2-0.6,3.3c-0.2,1.1-0.4,2.2-0.5,3.3
				c-0.2,1.1-0.3,2.2-0.5,3.3c-0.1,1.1-0.3,2.2-0.4,3.3c-0.1,1.1-0.2,2.2-0.3,3.4c-0.1,1.1-0.2,2.3-0.2,3.4
				c-0.1,1.1-0.1,2.3-0.1,3.4c0,1,0,2.1,0,3.1c0,0.1-0.1,0.2-0.1,0.3c0,1.9,0,3.8-0.1,5.6c0,1.9-0.1,3.7-0.2,5.6
				c-0.1,1.9-0.2,3.7-0.4,5.6c-0.1,1.8-0.3,3.7-0.5,5.5c-0.2,1.8-0.4,3.7-0.6,5.5c-0.2,1.8-0.5,3.6-0.8,5.4
				c-0.3,1.8-0.6,3.6-0.9,5.4c-0.3,1.8-0.7,3.6-1,5.3c-0.4,1.8-0.7,3.5-1.2,5.3c-0.4,1.8-0.8,3.5-1.3,5.2c-0.4,1.7-0.9,3.5-1.4,5.2
				c-0.5,1.7-1,3.4-1.5,5.1c-0.5,1.7-1.1,3.4-1.7,5.1c-0.6,1.7-1.2,3.4-1.8,5c-0.6,1.7-1.2,3.3-1.9,5c-0.7,1.6-1.3,3.3-2,4.9
				c-0.7,1.6-1.4,3.2-2.1,4.9c-0.7,1.6-1.5,3.2-2.2,4.8c-0.8,1.6-1.5,3.2-2.4,4.7c-0.8,1.6-1.6,3.1-2.5,4.7
				c-0.8,1.5-1.7,3.1-2.6,4.6c-0.9,1.5-1.8,3-2.7,4.5c-0.9,1.5-1.8,3-2.8,4.5c-0.9,1.5-1.9,2.9-2.9,4.4c-1,1.4-2,2.9-3,4.3
				c-1,1.4-2,2.8-3.1,4.2c-1,1.4-2.1,2.8-3.2,4.2c-1.1,1.4-2.2,2.7-3.3,4.1c-1.1,1.3-0.9,3.3,0.4,4.4c0.6,0.5,1.3,0.7,2,0.7
				c0.9,0,1.8-0.4,2.4-1.1c1.1-1.4,2.3-2.8,3.4-4.2C-37.3,283-36.2,281.6-35.1,280.2z"/>
			<path class="st15" d="M-28.1,307.6c1.3-1.5,2.6-3,3.8-4.5c1.3-1.5,2.5-3.1,3.7-4.6c1.2-1.6,2.4-3.1,3.6-4.7
				c1.2-1.6,2.4-3.2,3.5-4.8c1.1-1.6,2.3-3.2,3.4-4.9s2.2-3.3,3.3-5c1.1-1.7,2.1-3.4,3.2-5c1-1.7,2-3.4,3-5.1c1-1.7,2-3.5,2.9-5.2
				c0.9-1.8,1.9-3.5,2.8-5.3c0.9-1.8,1.8-3.6,2.7-5.4c0.9-1.8,1.7-3.6,2.5-5.4c0.7-1.6,0-3.4-1.6-4.1c-1.6-0.7-3.4,0-4.1,1.6
				c-0.8,1.8-1.6,3.5-2.5,5.3c-0.8,1.8-1.7,3.5-2.6,5.2c-0.9,1.7-1.8,3.4-2.7,5.1c-0.9,1.7-1.9,3.4-2.8,5.1c-1,1.7-2,3.3-3,5
				c-1,1.7-2,3.3-3.1,4.9c-1,1.6-2.1,3.2-3.2,4.8c-1.1,1.6-2.2,3.2-3.3,4.8c-1.1,1.6-2.3,3.1-3.4,4.7c-1.2,1.5-2.3,3.1-3.5,4.6
				c-1.2,1.5-2.4,3-3.6,4.5c-1.2,1.5-2.5,3-3.7,4.4c-1.3,1.5-2.5,2.9-3.8,4.3c-1.3,1.4-2.6,2.8-3.9,4.2c-1.2,1.2-1.1,3.2,0.1,4.4
				c0.6,0.6,1.4,0.9,2.2,0.9c0.8,0,1.6-0.3,2.3-1c1.4-1.4,2.7-2.9,4-4.3C-30.7,310.6-29.4,309.1-28.1,307.6z"/>
			<path class="st15" d="M20.4,415.4c2.2,0.9,4.4,1.8,6.6,2.7c2.2,0.9,4.5,1.7,6.7,2.5c2.2,0.8,4.5,1.6,6.8,2.4
				c2.3,0.8,4.5,1.5,6.8,2.2c2.3,0.7,4.6,1.4,6.9,2.1c2.3,0.7,4.6,1.3,7,1.9c2.3,0.6,4.7,1.2,7,1.7c2.4,0.5,4.7,1.1,7.1,1.5
				c2.4,0.5,4.8,0.9,7.2,1.4c2.4,0.4,4.8,0.8,7.2,1.2c0.2,0,0.3,0,0.5,0c1.5,0,2.8-1.1,3.1-2.7c0.3-1.7-0.9-3.3-2.6-3.6
				c-2.4-0.4-4.7-0.8-7.1-1.2c-2.3-0.4-4.7-0.9-7-1.3c-2.3-0.5-4.7-1-7-1.5c-2.3-0.5-4.6-1.1-6.9-1.7c-2.3-0.6-4.6-1.2-6.8-1.8
				c-2.3-0.6-4.5-1.3-6.8-2c-2.2-0.7-4.5-1.4-6.7-2.2c-2.2-0.8-4.4-1.5-6.6-2.3c-2.2-0.8-4.4-1.6-6.5-2.5c-2.2-0.9-4.3-1.7-6.5-2.6
				c-2.1-0.9-4.3-1.8-6.4-2.8c-2.1-0.9-4.2-1.9-6.3-2.9c-2.1-1-4.2-2-6.2-3.1c-2.1-1.1-4.1-2.1-6.1-3.2c-2-1.1-4-2.2-6-3.4
				c-1.5-0.9-3.4-0.3-4.3,1.1c-0.9,1.5-0.3,3.4,1.2,4.3c2,1.2,4.1,2.3,6.2,3.4c2.1,1.1,4.2,2.2,6.3,3.3c2.1,1.1,4.2,2.1,6.3,3.2
				c2.1,1,4.3,2,6.4,3C16.1,413.5,18.3,414.4,20.4,415.4z"/>
			<path class="st15" d="M178.7,145c0-0.4,0-0.7,0-1.1c0-0.4,0-0.7-0.1-1.1c0-0.4-0.1-0.7-0.1-1.1c0-0.4-0.1-0.7-0.1-1.1
				c0-0.4-0.1-0.7-0.1-1c-0.1-0.4-0.1-0.7-0.2-1.1c-0.1-0.3-0.1-0.7-0.2-1c-0.1-0.3-0.1-0.7-0.2-1c-0.1-0.3-0.2-0.7-0.2-1
				c-0.1-0.3-0.2-0.7-0.3-1c-0.1-0.3-0.2-0.7-0.3-1c-0.1-0.3-0.2-0.7-0.3-1c-0.1-0.3-0.2-0.7-0.3-1c-0.1-0.3-0.2-0.6-0.4-1
				c-0.1-0.3-0.3-0.6-0.4-0.9c-0.1-0.3-0.3-0.6-0.4-0.9c-0.1-0.3-0.3-0.6-0.4-0.9c-0.1-0.3-0.3-0.6-0.5-0.9
				c-0.2-0.3-0.3-0.6-0.5-0.9l-0.5-0.9c-0.2-0.3-0.3-0.6-0.5-0.9c-0.2-0.3-0.4-0.6-0.5-0.9l-0.6-0.9c-0.2-0.3-0.4-0.6-0.6-0.8
				c-0.2-0.3-0.4-0.6-0.6-0.8c-0.2-0.3-0.4-0.5-0.6-0.8c-0.2-0.3-0.4-0.5-0.6-0.8c-0.2-0.3-0.4-0.5-0.7-0.8
				c-0.2-0.3-0.4-0.5-0.7-0.8c-0.2-0.2-0.5-0.5-0.7-0.7c-0.2-0.2-0.5-0.5-0.7-0.7c-0.2-0.2-0.5-0.5-0.7-0.7
				c-0.2-0.2-0.5-0.5-0.7-0.7c-0.3-0.2-0.5-0.5-0.8-0.7c-0.3-0.2-0.5-0.4-0.8-0.7c-0.3-0.2-0.5-0.4-0.8-0.6
				c-0.3-0.2-0.5-0.4-0.8-0.6c-0.3-0.2-0.5-0.4-0.8-0.6c-0.3-0.2-0.6-0.4-0.8-0.6l-0.8-0.6c-0.3-0.2-0.6-0.4-0.9-0.5
				c-0.3-0.2-0.6-0.3-0.9-0.5l-0.9-0.5c-0.3-0.2-0.6-0.3-0.9-0.5c-0.3-0.2-0.6-0.3-0.9-0.5c-0.3-0.1-0.6-0.3-0.9-0.4
				c-0.3-0.1-0.6-0.3-0.9-0.4c-0.3-0.1-0.6-0.3-1-0.4c-0.3-0.1-0.6-0.2-1-0.4c-0.3-0.1-0.7-0.2-1-0.3c-0.3-0.1-0.7-0.2-1-0.3
				c-0.3-0.1-0.7-0.2-1-0.3c-0.3-0.1-0.7-0.2-1-0.3c-0.3-0.1-0.7-0.2-1-0.3c-0.3-0.1-0.7-0.2-1-0.2c-0.3-0.1-0.7-0.1-1-0.2
				c-0.3-0.1-0.7-0.1-1-0.2c-0.4-0.1-0.7-0.1-1.1-0.1c-0.4,0-0.7-0.1-1.1-0.1c-0.4,0-0.7-0.1-1.1-0.1c-0.4,0-0.7-0.1-1.1-0.1
				c-0.4,0-0.7,0-1.1,0c-0.7,0-1.5,0-2.2,0c-0.4,0-0.7,0-1.1,0c-0.4,0-0.7,0-1.1,0.1c-0.4,0-0.7,0.1-1.1,0.1c-0.4,0-0.7,0.1-1.1,0.1
				c-0.4,0-0.7,0.1-1,0.1c-0.3,0.1-0.7,0.1-1.1,0.2c-0.3,0.1-0.7,0.1-1,0.2c-0.3,0.1-0.7,0.1-1,0.2c-0.3,0.1-0.7,0.2-1,0.2
				c-0.3,0.1-0.7,0.2-1,0.3c-0.3,0.1-0.7,0.2-1,0.3c-0.3,0.1-0.7,0.2-1,0.3c-0.3,0.1-0.7,0.2-1,0.3c-0.3,0.1-0.6,0.2-1,0.4
				c-0.3,0.1-0.6,0.3-0.9,0.4c-0.3,0.1-0.6,0.3-0.9,0.4c-0.3,0.1-0.6,0.3-0.9,0.4c-0.3,0.1-0.6,0.3-0.9,0.5
				c-0.3,0.2-0.6,0.3-0.9,0.5l-0.9,0.5c-0.3,0.2-0.6,0.3-0.9,0.5c-0.3,0.2-0.6,0.4-0.9,0.5l-0.8,0.6c-0.3,0.2-0.6,0.4-0.8,0.6
				c-0.3,0.2-0.6,0.4-0.8,0.6c-0.3,0.2-0.5,0.4-0.8,0.6c-0.3,0.2-0.5,0.4-0.8,0.6c-0.3,0.2-0.5,0.4-0.8,0.7
				c-0.3,0.2-0.5,0.4-0.8,0.7c-0.2,0.2-0.5,0.5-0.7,0.7c-0.2,0.2-0.5,0.5-0.7,0.7c-0.2,0.2-0.5,0.5-0.7,0.7
				c-0.2,0.2-0.5,0.5-0.7,0.7c-0.2,0.3-0.5,0.5-0.7,0.8c-0.2,0.3-0.4,0.5-0.7,0.8c-0.2,0.3-0.4,0.5-0.6,0.8
				c-0.2,0.3-0.4,0.5-0.6,0.8c-0.2,0.3-0.4,0.5-0.6,0.8c-0.2,0.3-0.4,0.5-0.6,0.8c-0.2,0.3-0.4,0.6-0.6,0.9l-0.5,0.9
				c-0.2,0.3-0.3,0.6-0.5,0.9c-0.2,0.3-0.3,0.6-0.5,0.9c-0.2,0.3-0.3,0.6-0.5,0.9c-0.2,0.3-0.3,0.6-0.5,0.9
				c-0.1,0.3-0.3,0.6-0.4,0.9c-0.1,0.3-0.3,0.6-0.4,0.9c-0.1,0.3-0.3,0.6-0.4,1c-0.1,0.3-0.2,0.6-0.4,1c-0.1,0.3-0.2,0.6-0.3,1
				c-0.1,0.3-0.2,0.7-0.3,1c-0.1,0.3-0.2,0.7-0.3,1c-0.1,0.3-0.2,0.7-0.3,1c-0.1,0.3-0.2,0.7-0.2,1c-0.1,0.3-0.2,0.7-0.2,1
				c-0.1,0.3-0.1,0.7-0.2,1c-0.1,0.3-0.1,0.7-0.2,1c-0.1,0.4-0.1,0.7-0.1,1.1c0,0.4-0.1,0.7-0.1,1.1c0,0.4-0.1,0.7-0.1,1.1
				c0,0.4-0.1,0.7-0.1,1.1c0,0.4,0,0.7,0,1.1c0,0.4,0,0.7,0,1.1c0,0.4,0,0.7,0,1.1c0,0.4,0,0.7,0,1.1c0,0.4,0,0.7,0.1,1.1
				c0,0.4,0.1,0.7,0.1,1.1c0,0.4,0.1,0.7,0.1,1.1c0,0.4,0.1,0.7,0.1,1.1c0.1,0.4,0.1,0.7,0.2,1c0.1,0.3,0.1,0.7,0.2,1
				c0.1,0.3,0.1,0.7,0.2,1c0.1,0.3,0.2,0.7,0.2,1c0.1,0.3,0.2,0.7,0.3,1c0.1,0.3,0.2,0.7,0.3,1c0.1,0.3,0.2,0.7,0.3,1
				c0.1,0.3,0.2,0.7,0.3,1c0.1,0.3,0.2,0.6,0.4,1c0.1,0.3,0.3,0.6,0.4,1c0.1,0.3,0.3,0.6,0.4,0.9c0.1,0.3,0.3,0.6,0.4,0.9
				c0.1,0.3,0.3,0.6,0.5,0.9c0.2,0.3,0.3,0.6,0.5,0.9c0.2,0.3,0.3,0.6,0.5,0.9c0.2,0.3,0.3,0.6,0.5,0.9c0.2,0.3,0.4,0.6,0.5,0.9
				c0.2,0.3,0.4,0.6,0.6,0.8c0.2,0.3,0.4,0.6,0.6,0.8c0.2,0.3,0.4,0.5,0.6,0.8c0.2,0.3,0.4,0.5,0.6,0.8c0.2,0.3,0.4,0.5,0.6,0.8
				c0.2,0.3,0.4,0.5,0.7,0.8c0.2,0.3,0.4,0.5,0.7,0.8c0.2,0.3,0.5,0.5,0.7,0.7c0.2,0.2,0.5,0.5,0.7,0.7c0.2,0.2,0.5,0.5,0.7,0.7
				c0.2,0.2,0.5,0.5,0.8,0.7c0.3,0.2,0.5,0.5,0.8,0.7c0.3,0.2,0.5,0.4,0.8,0.7c0.3,0.2,0.5,0.4,0.8,0.6c0.3,0.2,0.5,0.4,0.8,0.6
				c0.3,0.2,0.5,0.4,0.8,0.6c0.3,0.2,0.6,0.4,0.8,0.6c0.3,0.2,0.6,0.4,0.9,0.6c0.3,0.2,0.6,0.4,0.9,0.5c0.3,0.2,0.6,0.3,0.9,0.5
				c0.3,0.2,0.6,0.3,0.9,0.5c0.3,0.2,0.6,0.3,0.9,0.5c0.3,0.2,0.6,0.3,0.9,0.5c0.3,0.1,0.6,0.3,0.9,0.4c0.3,0.1,0.6,0.3,0.9,0.4
				c0.3,0.1,0.6,0.3,1,0.4c0.3,0.1,0.6,0.2,1,0.4c0.3,0.1,0.6,0.2,1,0.3c0.3,0.1,0.7,0.2,1,0.3c0.3,0.1,0.7,0.2,1,0.3
				c0.3,0.1,0.7,0.2,1,0.3c0.3,0.1,0.7,0.2,1,0.2c0.3,0.1,0.7,0.2,1,0.2c0.3,0.1,0.7,0.1,1,0.2c0.3,0.1,0.7,0.1,1,0.2
				c0.4,0.1,0.7,0.1,1.1,0.1c0.4,0,0.7,0.1,1.1,0.1c0.4,0,0.7,0.1,1.1,0.1c0.4,0,0.7,0.1,1.1,0.1c0.4,0,0.7,0,1.1,0
				c0.4,0,0.7,0,1.1,0c0.4,0,0.7,0,1.1,0c0.4,0,0.7,0,1.1,0c0.4,0,0.7,0,1.1-0.1c0.4,0,0.7-0.1,1.1-0.1c0.4,0,0.7-0.1,1.1-0.1
				c0.4,0,0.7-0.1,1.1-0.1c0.4-0.1,0.7-0.1,1-0.2c0.3-0.1,0.7-0.1,1-0.2c0.3-0.1,0.7-0.1,1-0.2c0.3-0.1,0.7-0.2,1-0.2
				c0.3-0.1,0.7-0.2,1-0.3c0.3-0.1,0.7-0.2,1-0.3c0.3-0.1,0.7-0.2,1-0.3c0.3-0.1,0.7-0.2,1-0.3c0.3-0.1,0.6-0.2,1-0.4
				c0.3-0.1,0.6-0.3,1-0.4c0.3-0.1,0.6-0.3,0.9-0.4c0.3-0.1,0.6-0.3,0.9-0.4c0.3-0.1,0.6-0.3,0.9-0.5c0.3-0.2,0.6-0.3,0.9-0.5
				c0.3-0.2,0.6-0.3,0.9-0.5c0.3-0.2,0.6-0.3,0.9-0.5l0.9-0.5c0.3-0.2,0.6-0.4,0.9-0.6c0.3-0.2,0.6-0.4,0.8-0.6
				c0.3-0.2,0.5-0.4,0.8-0.6c0.3-0.2,0.5-0.4,0.8-0.6c0.3-0.2,0.5-0.4,0.8-0.6c0.3-0.2,0.5-0.4,0.8-0.7c0.3-0.2,0.5-0.4,0.8-0.7
				c0.3-0.2,0.5-0.5,0.7-0.7c0.2-0.2,0.5-0.5,0.7-0.7c0.2-0.2,0.5-0.5,0.7-0.7c0.2-0.2,0.5-0.5,0.7-0.7c0.2-0.2,0.5-0.5,0.7-0.8
				c0.2-0.3,0.4-0.5,0.7-0.8c0.2-0.3,0.4-0.5,0.6-0.8c0.2-0.3,0.4-0.5,0.6-0.8c0.2-0.3,0.4-0.5,0.6-0.8s0.4-0.6,0.6-0.8l0.6-0.8
				c0.2-0.2,0.3-0.5,0.4-0.7v24.3c-0.3,0.2-0.6,0.5-0.9,0.7c-0.4,0.3-0.8,0.6-1.1,0.8c-0.4,0.3-0.8,0.5-1.2,0.8
				c-0.4,0.3-0.8,0.5-1.2,0.8c-0.4,0.3-0.8,0.5-1.2,0.7c-0.4,0.2-0.8,0.5-1.2,0.7c-0.4,0.2-0.8,0.5-1.2,0.7
				c-0.4,0.2-0.8,0.4-1.3,0.7c-0.4,0.2-0.8,0.4-1.3,0.6c-0.4,0.2-0.9,0.4-1.3,0.6c-0.4,0.2-0.9,0.4-1.3,0.6
				c-0.4,0.2-0.9,0.4-1.3,0.5c-0.4,0.2-0.9,0.3-1.3,0.5c-0.4,0.2-0.9,0.3-1.4,0.5c-0.5,0.2-0.9,0.3-1.4,0.4
				c-0.5,0.1-0.9,0.3-1.4,0.4c-0.5,0.1-0.9,0.3-1.4,0.4c-0.5,0.1-0.9,0.2-1.4,0.3c-0.5,0.1-0.9,0.2-1.4,0.3c-0.5,0.1-1,0.2-1.4,0.3
				c-0.5,0.1-1,0.2-1.4,0.2c-0.5,0.1-1,0.1-1.5,0.2c-0.5,0.1-1,0.1-1.5,0.2c-0.5,0-1,0.1-1.5,0.1c-0.5,0-1,0.1-1.5,0.1
				c-0.5,0-1,0-1.5,0.1c-1,0-2,0-3,0c-0.5,0-1,0-1.5-0.1c-0.5,0-1-0.1-1.5-0.1c-0.5,0-1-0.1-1.5-0.1c-0.5-0.1-1-0.1-1.5-0.2
				c-0.5-0.1-1-0.1-1.5-0.2c-0.5-0.1-1-0.2-1.5-0.2c-0.5-0.1-1-0.2-1.5-0.3c-0.5-0.1-0.9-0.2-1.4-0.3c-0.5-0.1-0.9-0.2-1.4-0.3
				c-0.5-0.1-0.9-0.2-1.4-0.4c-0.5-0.1-0.9-0.3-1.4-0.4c-0.5-0.1-0.9-0.3-1.4-0.4c-0.5-0.2-0.9-0.3-1.4-0.5
				c-0.4-0.2-0.9-0.3-1.3-0.5c-0.4-0.2-0.9-0.4-1.3-0.5c-0.4-0.2-0.9-0.4-1.3-0.6c-0.4-0.2-0.9-0.4-1.3-0.6
				c-0.4-0.2-0.9-0.4-1.3-0.6c-0.4-0.2-0.8-0.4-1.3-0.7c-0.4-0.2-0.8-0.5-1.2-0.7c-0.4-0.2-0.8-0.5-1.2-0.7
				c-0.4-0.2-0.8-0.5-1.2-0.8c-0.4-0.3-0.8-0.5-1.2-0.8c-0.4-0.3-0.8-0.5-1.2-0.8c-0.4-0.3-0.8-0.5-1.1-0.8
				c-0.4-0.3-0.8-0.6-1.1-0.9c-1.4-1.1-3.3-0.8-4.4,0.5c-1.1,1.4-0.8,3.3,0.5,4.4c0.4,0.3,0.8,0.6,1.2,1c0.4,0.3,0.8,0.6,1.3,0.9
				c0.4,0.3,0.9,0.6,1.3,0.9c0.4,0.3,0.9,0.6,1.3,0.9c0.4,0.3,0.9,0.6,1.3,0.8c0.4,0.3,0.9,0.5,1.4,0.8c0.5,0.3,0.9,0.5,1.4,0.8
				c0.5,0.3,0.9,0.5,1.4,0.7c0.5,0.2,0.9,0.5,1.4,0.7c0.5,0.2,1,0.5,1.4,0.7c0.5,0.2,1,0.4,1.5,0.6c0.5,0.2,1,0.4,1.5,0.6
				c0.5,0.2,1,0.4,1.5,0.6c0.5,0.2,1,0.4,1.5,0.5c0.5,0.2,1,0.3,1.5,0.5c0.5,0.2,1,0.3,1.5,0.5c0.5,0.1,1,0.3,1.6,0.4
				c0.5,0.1,1,0.3,1.6,0.4c0.5,0.1,1.1,0.2,1.6,0.3c0.5,0.1,1.1,0.2,1.6,0.3c0.5,0.1,1.1,0.2,1.6,0.3c0.5,0.1,1.1,0.2,1.6,0.2
				c0.5,0.1,1.1,0.1,1.6,0.2c0.5,0.1,1.1,0.1,1.6,0.1c0.6,0,1.1,0.1,1.7,0.1c0.6,0,1.1,0,1.7,0.1c0.6,0,1.1,0,1.7,0
				c0.6,0,1.1,0,1.7,0c0.6,0,1.1,0,1.7-0.1c0.6,0,1.1-0.1,1.6-0.1c0.6,0,1.1-0.1,1.7-0.1c0.5-0.1,1.1-0.1,1.6-0.2
				c0.5-0.1,1.1-0.1,1.6-0.2c0.5-0.1,1.1-0.2,1.6-0.3c0.5-0.1,1.1-0.2,1.6-0.3c0.5-0.1,1.1-0.2,1.6-0.3c0.5-0.1,1-0.2,1.6-0.4
				c0.5-0.1,1-0.3,1.6-0.4c0.5-0.1,1-0.3,1.5-0.5c0.5-0.2,1-0.3,1.5-0.5c0.5-0.2,1-0.3,1.5-0.5c0.5-0.2,1-0.4,1.5-0.6
				c0.5-0.2,1-0.4,1.5-0.6c0.5-0.2,1-0.4,1.4-0.6c0.5-0.2,1-0.4,1.4-0.7c0.5-0.2,0.9-0.5,1.4-0.7c0.5-0.2,0.9-0.5,1.4-0.7
				c0.5-0.3,0.9-0.5,1.4-0.8c0.5-0.3,0.9-0.5,1.3-0.8c0.4-0.3,0.9-0.5,1.3-0.8c0.3-0.2,0.7-0.4,1-0.7v19c-0.2,0.1-0.5,0.2-0.7,0.4
				c-0.6,0.3-1.2,0.6-1.8,0.8c-0.6,0.3-1.2,0.5-1.8,0.8c-0.6,0.3-1.2,0.5-1.8,0.8c-0.6,0.2-1.2,0.5-1.9,0.7
				c-0.6,0.2-1.3,0.4-1.9,0.7c-0.6,0.2-1.3,0.4-1.9,0.6c-0.6,0.2-1.3,0.4-1.9,0.6c-0.6,0.2-1.3,0.4-1.9,0.5c-0.7,0.2-1.3,0.3-2,0.5
				c-0.7,0.2-1.3,0.3-2,0.4c-0.7,0.1-1.3,0.3-2,0.4c-1.7,0.3-2.8,1.9-2.5,3.6c0.3,1.5,1.6,2.6,3.1,2.6c0.2,0,0.4,0,0.6,0
				c0.7-0.1,1.4-0.3,2.2-0.4c0.7-0.1,1.4-0.3,2.1-0.5c0.7-0.2,1.4-0.3,2.1-0.5c0.7-0.2,1.4-0.4,2.1-0.6c0.7-0.2,1.4-0.4,2.1-0.6
				c0.7-0.2,1.4-0.4,2.1-0.7c0.7-0.2,1.4-0.5,2-0.7c0.7-0.2,1.3-0.5,2-0.8c0.7-0.3,1.3-0.5,2-0.8c0.6-0.3,1.3-0.5,1.9-0.8v17.9
				c-0.1,0-0.1,0-0.2,0c-0.8,0.3-1.6,0.6-2.4,0.8c-0.8,0.3-1.6,0.5-2.4,0.8c-0.8,0.3-1.6,0.5-2.5,0.7c-0.8,0.2-1.7,0.5-2.5,0.7
				c-0.8,0.2-1.7,0.4-2.5,0.6c-0.8,0.2-1.7,0.4-2.5,0.6c-0.8,0.2-1.7,0.3-2.6,0.5c-0.9,0.2-1.7,0.3-2.6,0.4
				c-0.9,0.1-1.7,0.3-2.6,0.4c-0.9,0.1-1.7,0.2-2.6,0.3c-0.9,0.1-1.8,0.2-2.6,0.2c-0.9,0.1-1.8,0.1-2.7,0.2c-0.9,0-1.8,0.1-2.7,0.1
				c-1.8,0-3.6,0-5.4,0c-0.9,0-1.8-0.1-2.7-0.1c-0.9,0-1.8-0.1-2.7-0.2c-0.9-0.1-1.8-0.1-2.6-0.2c-0.9-0.1-1.7-0.2-2.6-0.3
				c-0.9-0.1-1.7-0.2-2.6-0.4c-0.9-0.1-1.7-0.3-2.6-0.4c-0.9-0.2-1.7-0.3-2.6-0.5c-0.8-0.2-1.7-0.4-2.5-0.6
				c-0.8-0.2-1.7-0.4-2.5-0.6c-0.8-0.2-1.7-0.4-2.5-0.7c-0.8-0.2-1.6-0.5-2.5-0.7c-0.8-0.3-1.6-0.5-2.4-0.8
				c-0.8-0.3-1.6-0.6-2.4-0.9c-0.8-0.3-1.6-0.6-2.4-0.9c-0.8-0.3-1.6-0.6-2.3-1c-0.8-0.3-1.6-0.7-2.3-1c-0.8-0.3-1.5-0.7-2.3-1.1
				c-1.6-0.7-3.4-0.1-4.2,1.5c-0.7,1.6-0.1,3.4,1.5,4.2c0.8,0.4,1.6,0.8,2.4,1.1c0.8,0.4,1.6,0.7,2.5,1.1c0.8,0.4,1.7,0.7,2.5,1
				c0.8,0.3,1.7,0.7,2.5,1c0.8,0.3,1.7,0.6,2.6,0.9c0.9,0.3,1.7,0.6,2.6,0.8c0.9,0.3,1.7,0.5,2.6,0.8c0.9,0.2,1.8,0.5,2.6,0.7
				c0.9,0.2,1.8,0.4,2.7,0.7c0.9,0.2,1.8,0.4,2.7,0.6c0.9,0.2,1.8,0.4,2.7,0.5c0.9,0.2,1.8,0.3,2.7,0.5c0.9,0.1,1.8,0.3,2.8,0.4
				c0.9,0.1,1.8,0.2,2.8,0.3c0.9,0.1,1.9,0.2,2.8,0.3c0.9,0.1,1.9,0.1,2.8,0.2c0.9,0,1.9,0.1,2.8,0.1c0.9,0,1.9,0,2.9,0
				c1,0,1.9,0,2.8,0c0.9,0,1.9-0.1,2.8-0.1c0.9,0,1.9-0.1,2.8-0.2c0.9-0.1,1.9-0.2,2.8-0.3c0.9-0.1,1.9-0.2,2.8-0.3
				c0.9-0.1,1.8-0.2,2.8-0.4c0.9-0.1,1.8-0.3,2.7-0.5c0.9-0.2,1.8-0.3,2.7-0.5c0.9-0.2,1.8-0.4,2.7-0.6c0.9-0.2,1.8-0.4,2.7-0.6
				c0.9-0.2,1.8-0.5,2.6-0.7c0.9-0.2,1.7-0.5,2.6-0.8c0.9-0.3,1.7-0.5,2.6-0.8c0.2-0.1,0.4-0.1,0.6-0.2v17.3
				c-0.4,0.1-0.9,0.3-1.3,0.4c-1,0.3-2,0.6-3,0.8c-1,0.3-2,0.5-3.1,0.7c-1,0.2-2.1,0.5-3.1,0.7c-1,0.2-2.1,0.4-3.1,0.6
				c-1,0.2-2.1,0.4-3.1,0.5c-1.1,0.2-2.1,0.3-3.2,0.4c-1.1,0.1-2.1,0.3-3.2,0.4c-1.1,0.1-2.1,0.2-3.2,0.3c-1.1,0.1-2.2,0.2-3.2,0.2
				c-1.1,0.1-2.2,0.1-3.3,0.1c-1.7,0-3.1,1.5-3,3.2c0,1.7,1.4,3,3.1,3c0,0,0.1,0,0.1,0c1.1,0,2.3-0.1,3.4-0.1
				c1.1-0.1,2.3-0.1,3.4-0.2c1.1-0.1,2.2-0.2,3.4-0.3c1.1-0.1,2.2-0.2,3.3-0.4c1.1-0.1,2.2-0.3,3.3-0.5c1.1-0.2,2.2-0.4,3.3-0.5
				c1.1-0.2,2.2-0.4,3.3-0.6c1.1-0.2,2.2-0.5,3.2-0.7c1.1-0.2,2.1-0.5,3.2-0.8c1.1-0.3,2.1-0.6,3.2-0.9c1.1-0.3,2.1-0.6,3.1-0.9
				c0.6-0.2,1.1-0.6,1.5-1.1c0.7-0.6,1.2-1.4,1.2-2.4V146.1c0-0.1,0-0.1,0-0.2C178.7,145.6,178.7,145.3,178.7,145z M161.3,172.1
				c-0.2,0.2-0.4,0.4-0.6,0.6c-0.2,0.2-0.4,0.4-0.7,0.6c-0.2,0.2-0.4,0.4-0.7,0.6c-0.2,0.2-0.4,0.4-0.7,0.5l-0.7,0.5l-3.6,2.4
				c-0.2,0.1-0.5,0.3-0.8,0.4l-3.2,1.5c-0.3,0.1-0.5,0.2-0.8,0.3c-0.3,0.1-0.5,0.2-0.8,0.3c-0.3,0.1-0.6,0.2-0.8,0.3
				s-0.6,0.2-0.8,0.3l-0.9,0.3c-0.3,0.1-0.6,0.2-0.9,0.2c-0.3,0.1-0.6,0.1-0.9,0.2c-0.3,0.1-0.6,0.1-0.9,0.2
				c-0.3,0.1-0.6,0.1-0.9,0.2c-0.3,0.1-0.6,0.1-0.9,0.1c-0.3,0-0.6,0.1-0.9,0.1c-0.3,0-0.6,0.1-0.9,0.1l-0.9,0.1
				c-0.3,0-0.6,0-0.9,0.1c-0.3,0-0.6,0-0.9,0c-0.6,0-1.3,0-1.9,0c-0.3,0-0.6,0-0.9,0c-0.3,0-0.6,0-0.9-0.1l-0.9-0.1
				c-0.3,0-0.6-0.1-0.9-0.1c-0.3,0-0.6-0.1-0.9-0.1c-0.3,0-0.6-0.1-0.9-0.1c-0.3-0.1-0.6-0.1-0.9-0.2c-0.3-0.1-0.6-0.1-0.9-0.2
				c-0.3-0.1-0.6-0.1-0.9-0.2c-0.3-0.1-0.6-0.2-0.9-0.2l-0.9-0.3c-0.3-0.1-0.6-0.2-0.8-0.3c-0.3-0.1-0.6-0.2-0.8-0.3
				c-0.3-0.1-0.5-0.2-0.8-0.3c-0.3-0.1-0.5-0.2-0.8-0.3l-3.2-1.5c-0.3-0.1-0.5-0.3-0.8-0.4l-2.2-1.4l-3.4-2.6
				c-0.2-0.2-0.4-0.4-0.6-0.6c-0.2-0.2-0.4-0.4-0.6-0.6l-1.2-1.2c-0.2-0.2-0.4-0.4-0.6-0.6c-0.2-0.2-0.4-0.4-0.6-0.6l-1.6-2
				l-2.4-3.6c-0.1-0.3-0.3-0.5-0.4-0.8l-1.5-3.1c-0.1-0.3-0.2-0.5-0.3-0.8c-0.1-0.3-0.2-0.5-0.3-0.8c-0.1-0.3-0.2-0.6-0.3-0.8
				c-0.1-0.3-0.2-0.6-0.3-0.8l-0.3-0.9c-0.1-0.3-0.2-0.6-0.2-0.9c-0.1-0.3-0.1-0.6-0.2-0.9c-0.1-0.3-0.1-0.6-0.2-0.9
				c-0.1-0.3-0.1-0.6-0.2-0.9c-0.1-0.3-0.1-0.6-0.1-0.9c0-0.3-0.1-0.6-0.1-0.9c0-0.3-0.1-0.6-0.1-0.9l-0.1-0.9c0-0.3,0-0.6-0.1-0.9
				c0-0.3,0-0.6,0-0.9c0-0.3,0-0.6,0-0.9c0-0.3,0-0.6,0-0.9c0-0.3,0-0.6,0-0.9c0-0.3,0-0.6,0.1-0.9l0.1-0.9c0-0.3,0.1-0.6,0.1-0.9
				c0-0.3,0.1-0.6,0.1-0.9c0-0.3,0.1-0.6,0.1-0.9c0.1-0.3,0.1-0.6,0.2-0.9c0.1-0.3,0.1-0.6,0.2-0.9c0.1-0.3,0.1-0.6,0.2-0.9
				c0.1-0.3,0.2-0.6,0.2-0.9l0.3-0.9c0.1-0.3,0.2-0.6,0.3-0.8c0.1-0.3,0.2-0.6,0.3-0.8c0.1-0.3,0.2-0.5,0.3-0.8
				c0.1-0.3,0.2-0.5,0.3-0.8l1.5-3.1c0.1-0.3,0.3-0.5,0.4-0.8l2.9-4.3c0.2-0.2,0.4-0.4,0.5-0.7c0.2-0.2,0.4-0.4,0.6-0.7
				c0.2-0.2,0.4-0.4,0.6-0.6c0.2-0.2,0.4-0.4,0.6-0.6l0.6-0.6c0.2-0.2,0.4-0.4,0.6-0.6l3.3-2.8c0.2-0.2,0.5-0.3,0.7-0.5
				c0.2-0.2,0.5-0.3,0.7-0.5l0.7-0.5c0.2-0.2,0.5-0.3,0.7-0.5l2.3-1.3c0.3-0.1,0.5-0.3,0.8-0.4c0.3-0.1,0.5-0.3,0.8-0.4
				c0.3-0.1,0.5-0.2,0.8-0.3c0.3-0.1,0.5-0.2,0.8-0.3c0.3-0.1,0.5-0.2,0.8-0.3c0.3-0.1,0.5-0.2,0.8-0.3c0.3-0.1,0.6-0.2,0.8-0.3
				c0.3-0.1,0.6-0.2,0.9-0.3c0.3-0.1,0.6-0.2,0.8-0.2l0.9-0.2c0.3-0.1,0.6-0.1,0.9-0.2c0.3-0.1,0.6-0.1,0.9-0.2
				c0.3-0.1,0.6-0.1,0.9-0.1c0.3,0,0.6-0.1,0.9-0.1l0.9-0.1c0.3,0,0.6-0.1,0.9-0.1c0.3,0,0.6,0,0.9-0.1c0.3,0,0.6,0,0.9,0
				c0.3,0,0.6,0,0.9,0c0.3,0,0.6,0,0.9,0c0.3,0,0.6,0,0.9,0c0.3,0,0.6,0,0.9,0.1c0.3,0,0.6,0,0.9,0.1l0.9,0.1c0.3,0,0.6,0.1,0.9,0.1
				c0.3,0,0.6,0.1,0.9,0.1l1.8,0.4c0.3,0.1,0.6,0.1,0.9,0.2c0.3,0.1,0.6,0.2,0.9,0.2c0.3,0.1,0.6,0.2,0.8,0.2
				c0.3,0.1,0.6,0.2,0.9,0.3c0.3,0.1,0.6,0.2,0.8,0.3c0.3,0.1,0.5,0.2,0.8,0.3c0.3,0.1,0.5,0.2,0.8,0.3c0.3,0.1,0.5,0.2,0.8,0.4
				c0.3,0.1,0.5,0.2,0.8,0.4c0.3,0.1,0.5,0.3,0.8,0.4l2.3,1.3c0.2,0.1,0.5,0.3,0.7,0.5l1.4,1c0.2,0.2,0.5,0.3,0.7,0.5l1.4,1.1
				c0.2,0.2,0.4,0.4,0.7,0.6l1.1,1l-6.1,7.1c-6-4.8-11.8-7-18.4-7c-13.7,0-24.4,11.4-24.4,25.9v0.2c0,14.9,10.5,26.1,24.4,26.1
				c8.1,0,13.5-2.8,19.1-7.4l6.4,6.5c-0.1,0.1-0.2,0.2-0.2,0.2L161.3,172.1z M172.4,147c0,0.3,0,0.6,0,0.9c0,0.3,0,0.6-0.1,0.9
				c0,0.3,0,0.6-0.1,0.9l-0.1,0.9c0,0.3-0.1,0.6-0.1,0.9c0,0.3-0.1,0.6-0.1,0.9c-0.1,0.3-0.1,0.6-0.2,0.9c-0.1,0.3-0.1,0.6-0.2,0.9
				l-0.2,0.9c-0.1,0.3-0.2,0.6-0.2,0.9c-0.1,0.3-0.2,0.6-0.3,0.8c-0.1,0.3-0.2,0.6-0.3,0.9c-0.1,0.3-0.2,0.6-0.3,0.8
				c-0.1,0.3-0.2,0.5-0.3,0.8c-0.1,0.3-0.2,0.5-0.3,0.8c-0.1,0.3-0.2,0.5-0.4,0.8c-0.1,0.3-0.2,0.5-0.4,0.8
				c-0.1,0.3-0.3,0.5-0.4,0.8l-1.3,2.3c-0.1,0.2-0.3,0.5-0.5,0.7l-0.5,0.7c-0.1,0.1-0.1,0.2-0.2,0.2l-10.2-10.3l-2.2,2
				c-5.5,5-9.9,7.8-17.1,7.8c-10.3,0-18.1-8.5-18.1-19.9v-0.2c0-11.2,7.8-19.7,18.1-19.7c5.9,0,10.9,2.2,16.6,7.4l2.4,2.1l9.7-11.2
				c0.2,0.2,0.3,0.4,0.5,0.7l1,1.4c0.2,0.2,0.3,0.5,0.5,0.7l1.3,2.3c0.1,0.3,0.3,0.5,0.4,0.8s0.2,0.5,0.4,0.8
				c0.1,0.3,0.2,0.5,0.4,0.8c0.1,0.3,0.2,0.5,0.3,0.8c0.1,0.3,0.2,0.5,0.3,0.8c0.1,0.3,0.2,0.5,0.3,0.8c0.1,0.3,0.2,0.6,0.3,0.8
				c0.1,0.3,0.2,0.6,0.3,0.9c0.1,0.3,0.2,0.6,0.2,0.9c0.1,0.3,0.1,0.6,0.2,0.9l0.4,1.8c0.1,0.3,0.1,0.6,0.1,0.9
				c0,0.3,0.1,0.6,0.1,0.9l0.1,0.9c0,0.3,0.1,0.6,0.1,0.9c0,0.3,0,0.6,0.1,0.9c0,0.3,0,0.6,0,0.9c0,0.3,0,0.6,0,0.9
				C172.4,146.4,172.4,146.7,172.4,147z"/>
			<path class="st15" d="M201.4,144.4c0-0.6,0-1.1-0.1-1.7c0-0.6-0.1-1.1-0.1-1.7c0-0.6-0.1-1.1-0.1-1.6c-0.1-0.5-0.1-1.1-0.2-1.6
				c-0.1-0.5-0.1-1.1-0.2-1.6c-0.1-0.5-0.2-1.1-0.3-1.6c-0.1-0.5-0.2-1.1-0.3-1.6c-0.1-0.5-0.2-1.1-0.3-1.6c-0.1-0.5-0.2-1-0.4-1.6
				c-0.1-0.5-0.3-1-0.4-1.6c-0.1-0.5-0.3-1-0.5-1.5c-0.2-0.5-0.3-1-0.5-1.5c-0.2-0.5-0.3-1-0.5-1.5c-0.2-0.5-0.4-1-0.6-1.5
				c-0.2-0.5-0.4-1-0.6-1.5c-0.2-0.5-0.4-1-0.6-1.5c-0.2-0.5-0.4-1-0.7-1.4c-0.2-0.5-0.5-0.9-0.7-1.4c-0.2-0.5-0.5-0.9-0.7-1.4
				c-0.3-0.5-0.5-0.9-0.8-1.4c-0.3-0.5-0.5-0.9-0.8-1.3c-0.3-0.4-0.5-0.9-0.8-1.3c-0.3-0.4-0.6-0.9-0.9-1.3
				c-0.3-0.4-0.6-0.9-0.9-1.3c-0.3-0.4-0.6-0.8-0.9-1.3c-0.3-0.4-0.6-0.8-0.9-1.2c-0.3-0.4-0.6-0.8-1-1.2c-0.3-0.4-0.7-0.8-1-1.2
				c-0.3-0.4-0.7-0.8-1-1.2c-0.3-0.4-0.7-0.8-1.1-1.1c-0.4-0.4-0.7-0.8-1.1-1.1c-0.4-0.4-0.7-0.7-1.1-1.1c-0.4-0.4-0.8-0.7-1.1-1.1
				c-0.4-0.4-0.8-0.7-1.2-1c-0.4-0.3-0.8-0.7-1.2-1c-0.4-0.3-0.8-0.7-1.2-1c-0.4-0.3-0.8-0.6-1.2-0.9c-0.4-0.3-0.8-0.6-1.3-0.9
				c-0.4-0.3-0.8-0.6-1.3-0.9c-0.4-0.3-0.9-0.6-1.3-0.9c-0.4-0.3-0.9-0.6-1.3-0.8c-0.4-0.3-0.9-0.5-1.4-0.8
				c-0.5-0.3-0.9-0.5-1.4-0.8c-0.5-0.2-0.9-0.5-1.4-0.7c-0.5-0.2-0.9-0.5-1.4-0.7c-0.5-0.2-1-0.5-1.4-0.7s-1-0.4-1.4-0.6
				c-0.5-0.2-1-0.4-1.5-0.6c-0.5-0.2-1-0.4-1.5-0.6c-0.5-0.2-1-0.4-1.5-0.5c-0.5-0.2-1-0.3-1.5-0.5c-0.5-0.2-1-0.3-1.5-0.5
				c-0.5-0.1-1-0.3-1.5-0.4c-0.5-0.1-1-0.3-1.6-0.4c-0.5-0.1-1.1-0.2-1.6-0.3c-0.5-0.1-1.1-0.2-1.6-0.3c-0.5-0.1-1.1-0.2-1.6-0.3
				c-0.5-0.1-1.1-0.2-1.6-0.2c-0.5-0.1-1.1-0.1-1.6-0.2c-0.5-0.1-1.1-0.1-1.6-0.1c-0.6,0-1.1-0.1-1.7-0.1c-0.6,0-1.1,0-1.7-0.1
				c-1.1,0-2.3,0-3.4,0c-0.6,0-1.1,0-1.7,0.1c-0.6,0-1.1,0.1-1.7,0.1c-0.6,0-1.1,0.1-1.6,0.1c-0.5,0.1-1.1,0.1-1.6,0.2
				c-0.5,0.1-1.1,0.1-1.6,0.2c-0.5,0.1-1.1,0.2-1.6,0.3c-0.5,0.1-1.1,0.2-1.6,0.3c-0.5,0.1-1.1,0.2-1.6,0.3c-0.5,0.1-1,0.2-1.6,0.4
				c-0.5,0.1-1,0.3-1.6,0.4c-0.5,0.1-1,0.3-1.5,0.5c-0.5,0.2-1,0.3-1.5,0.5c-0.5,0.2-1,0.3-1.5,0.5c-0.5,0.2-1,0.4-1.5,0.6
				c-0.5,0.2-1,0.4-1.5,0.6c-0.5,0.2-1,0.4-1.5,0.6s-1,0.4-1.4,0.7c-0.5,0.2-0.9,0.5-1.4,0.7c-0.5,0.2-0.9,0.5-1.4,0.7
				c-0.5,0.3-0.9,0.5-1.4,0.8c-0.5,0.3-0.9,0.5-1.4,0.8c-0.4,0.3-0.9,0.5-1.3,0.8c-0.4,0.3-0.9,0.6-1.3,0.9
				c-0.4,0.3-0.9,0.6-1.3,0.9c-0.4,0.3-0.8,0.6-1.3,0.9c-0.4,0.3-0.8,0.6-1.2,0.9c-0.4,0.3-0.8,0.6-1.2,1c-0.4,0.3-0.8,0.7-1.2,1
				c-0.4,0.3-0.8,0.7-1.2,1c-0.4,0.3-0.8,0.7-1.1,1.1c-0.4,0.4-0.7,0.7-1.1,1.1c-0.4,0.4-0.7,0.7-1.1,1.1c-0.4,0.4-0.7,0.8-1.1,1.1
				c-0.4,0.4-0.7,0.8-1,1.2c-0.3,0.4-0.7,0.8-1,1.2c-0.3,0.4-0.7,0.8-1,1.2c-0.3,0.4-0.6,0.8-0.9,1.2c-0.3,0.4-0.6,0.8-0.9,1.3
				c-0.3,0.4-0.6,0.9-0.9,1.3c-0.3,0.4-0.6,0.9-0.9,1.3c-0.3,0.4-0.6,0.9-0.8,1.3c-0.3,0.4-0.5,0.9-0.8,1.4
				c-0.3,0.5-0.5,0.9-0.8,1.4c-0.2,0.5-0.5,0.9-0.7,1.4c-0.2,0.5-0.5,0.9-0.7,1.4c-0.2,0.5-0.4,0.9-0.7,1.4c-0.2,0.5-0.4,1-0.6,1.4
				c-0.2,0.5-0.4,1-0.6,1.5c-0.2,0.5-0.4,1-0.6,1.5c-0.2,0.5-0.4,1-0.5,1.5c-0.2,0.5-0.3,1-0.5,1.5c-0.2,0.5-0.3,1-0.5,1.5
				c-0.1,0.5-0.3,1-0.4,1.6c-0.1,0.5-0.3,1-0.4,1.6c-0.1,0.5-0.2,1-0.3,1.6c-0.1,0.5-0.2,1.1-0.3,1.6c-0.1,0.5-0.2,1.1-0.3,1.6
				c-0.1,0.5-0.2,1.1-0.2,1.6c-0.1,0.5-0.1,1.1-0.2,1.6c-0.1,0.5-0.1,1.1-0.1,1.6c0,0.5-0.1,1.1-0.1,1.7c0,0.6,0,1.1-0.1,1.7
				c0,0.6,0,1.1,0,1.7c0,0.6,0,1.1,0,1.7c0,0.6,0,1.1,0.1,1.7c0,0.6,0.1,1.1,0.1,1.7c0,0.5,0.1,1.1,0.1,1.6c0.1,0.5,0.1,1.1,0.2,1.6
				c0.1,0.5,0.1,1.1,0.2,1.6c0.1,0.5,0.2,1.1,0.3,1.6c0.1,0.5,0.2,1.1,0.3,1.6c0.1,0.5,0.2,1.1,0.3,1.6c0.1,0.5,0.2,1,0.4,1.6
				c0.1,0.5,0.3,1,0.4,1.5c0.1,0.5,0.3,1,0.5,1.5c0.2,0.5,0.3,1,0.5,1.5c0.2,0.5,0.3,1,0.5,1.5c0.2,0.5,0.4,1,0.6,1.5
				c0.2,0.5,0.4,1,0.6,1.5c0.2,0.5,0.4,1,0.6,1.5c0.2,0.5,0.4,1,0.7,1.4c0.2,0.5,0.5,0.9,0.7,1.4c0.2,0.5,0.5,0.9,0.7,1.4
				c0.3,0.5,0.5,0.9,0.8,1.4c0.3,0.5,0.5,0.9,0.8,1.4c0.3,0.4,0.5,0.9,0.8,1.3c0.6,0.9,1.6,1.4,2.6,1.4c0.6,0,1.2-0.2,1.7-0.5
				c1.5-0.9,1.9-2.9,0.9-4.3c-0.3-0.4-0.5-0.8-0.8-1.2c-0.2-0.4-0.5-0.8-0.7-1.2c-0.2-0.4-0.5-0.8-0.7-1.2c-0.2-0.4-0.4-0.8-0.7-1.3
				c-0.2-0.4-0.4-0.8-0.6-1.3c-0.2-0.4-0.4-0.9-0.6-1.3c-0.2-0.4-0.4-0.9-0.6-1.3c-0.2-0.4-0.4-0.9-0.5-1.3
				c-0.2-0.4-0.3-0.9-0.5-1.3c-0.2-0.4-0.3-0.9-0.5-1.4c-0.2-0.5-0.3-0.9-0.4-1.4c-0.1-0.5-0.3-0.9-0.4-1.4
				c-0.1-0.5-0.3-0.9-0.4-1.4c-0.1-0.5-0.2-0.9-0.3-1.4c-0.1-0.5-0.2-1-0.3-1.4c-0.1-0.5-0.2-1-0.3-1.4c-0.1-0.5-0.2-1-0.2-1.5
				c-0.1-0.5-0.1-1-0.2-1.5c-0.1-0.5-0.1-1-0.2-1.5c0-0.5-0.1-1-0.1-1.5c0-0.5-0.1-1-0.1-1.5c0-0.5,0-1-0.1-1.5c0-0.5,0-1,0-1.5
				c0-0.5,0-1,0-1.5c0-0.5,0-1,0.1-1.5c0-0.5,0.1-1,0.1-1.5c0-0.5,0.1-1,0.1-1.5c0.1-0.5,0.1-1,0.2-1.5c0.1-0.5,0.1-1,0.2-1.5
				c0.1-0.5,0.2-1,0.2-1.5c0.1-0.5,0.2-1,0.3-1.4c0.1-0.5,0.2-1,0.3-1.4c0.1-0.5,0.2-0.9,0.3-1.4c0.1-0.5,0.2-0.9,0.4-1.4
				c0.1-0.5,0.3-0.9,0.4-1.4c0.1-0.5,0.3-0.9,0.4-1.4c0.2-0.5,0.3-0.9,0.5-1.4c0.2-0.4,0.3-0.9,0.5-1.3c0.2-0.4,0.4-0.9,0.5-1.3
				c0.2-0.4,0.4-0.9,0.6-1.3c0.2-0.4,0.4-0.9,0.6-1.3c0.2-0.4,0.4-0.9,0.6-1.3c0.2-0.4,0.4-0.8,0.7-1.3c0.2-0.4,0.5-0.8,0.7-1.2
				c0.2-0.4,0.5-0.8,0.7-1.2c0.2-0.4,0.5-0.8,0.8-1.2c0.3-0.4,0.5-0.8,0.8-1.2c0.3-0.4,0.5-0.8,0.8-1.2c0.3-0.4,0.5-0.8,0.8-1.1
				c0.3-0.4,0.6-0.8,0.9-1.1c0.3-0.4,0.6-0.7,0.9-1.1c0.3-0.4,0.6-0.7,0.9-1.1c0.3-0.4,0.6-0.7,0.9-1.1c0.3-0.3,0.6-0.7,1-1
				c0.3-0.3,0.7-0.7,1-1c0.3-0.3,0.7-0.7,1-1c0.3-0.3,0.7-0.6,1-1c0.3-0.3,0.7-0.6,1.1-0.9c0.4-0.3,0.7-0.6,1.1-0.9s0.7-0.6,1.1-0.9
				c0.4-0.3,0.7-0.6,1.1-0.9c0.4-0.3,0.8-0.6,1.1-0.8c0.4-0.3,0.8-0.5,1.2-0.8c0.4-0.3,0.8-0.5,1.2-0.8c0.4-0.3,0.8-0.5,1.2-0.8
				c0.4-0.2,0.8-0.5,1.2-0.7c0.4-0.2,0.8-0.5,1.2-0.7c0.4-0.2,0.8-0.4,1.3-0.7c0.4-0.2,0.8-0.4,1.3-0.6c0.4-0.2,0.9-0.4,1.3-0.6
				c0.4-0.2,0.9-0.4,1.3-0.6c0.4-0.2,0.9-0.4,1.3-0.5c0.4-0.2,0.9-0.3,1.3-0.5c0.5-0.2,0.9-0.3,1.4-0.5c0.5-0.2,0.9-0.3,1.4-0.4
				c0.5-0.1,0.9-0.3,1.4-0.4c0.5-0.1,0.9-0.3,1.4-0.4c0.5-0.1,0.9-0.2,1.4-0.3c0.5-0.1,0.9-0.2,1.4-0.3c0.5-0.1,1-0.2,1.4-0.3
				c0.5-0.1,1-0.2,1.5-0.2c0.5-0.1,1-0.1,1.5-0.2c0.5-0.1,1-0.1,1.5-0.2c0.5,0,1-0.1,1.5-0.1c0.5,0,1-0.1,1.5-0.1c0.5,0,1,0,1.5-0.1
				c1,0,2,0,3,0c0.5,0,1,0,1.5,0.1c0.5,0,1,0.1,1.5,0.1c0.5,0,1,0.1,1.5,0.1c0.5,0.1,1,0.1,1.5,0.2c0.5,0.1,1,0.1,1.5,0.2
				c0.5,0.1,1,0.2,1.4,0.2c0.5,0.1,1,0.2,1.4,0.3c0.5,0.1,1,0.2,1.4,0.3c0.5,0.1,0.9,0.2,1.4,0.3c0.5,0.1,0.9,0.2,1.4,0.4
				c0.5,0.1,0.9,0.3,1.4,0.4c0.5,0.1,0.9,0.3,1.4,0.4c0.5,0.2,0.9,0.3,1.4,0.5c0.5,0.2,0.9,0.3,1.3,0.5c0.4,0.2,0.9,0.4,1.3,0.5
				c0.4,0.2,0.9,0.4,1.3,0.6c0.4,0.2,0.9,0.4,1.3,0.6c0.4,0.2,0.9,0.4,1.3,0.6c0.4,0.2,0.8,0.4,1.3,0.7c0.4,0.2,0.8,0.5,1.2,0.7
				c0.4,0.2,0.8,0.5,1.2,0.7c0.4,0.2,0.8,0.5,1.2,0.7c0.4,0.3,0.8,0.5,1.2,0.8c0.4,0.3,0.8,0.5,1.2,0.8c0.4,0.3,0.8,0.6,1.1,0.8
				c0.4,0.3,0.8,0.6,1.1,0.9c0.4,0.3,0.7,0.6,1.1,0.9c0.4,0.3,0.7,0.6,1.1,0.9c0.4,0.3,0.7,0.6,1.1,0.9c0.3,0.3,0.7,0.6,1,1
				c0.3,0.3,0.7,0.7,1,1c0.3,0.3,0.7,0.7,1,1c0.3,0.3,0.6,0.7,1,1c0.3,0.3,0.6,0.7,0.9,1.1c0.3,0.4,0.6,0.7,0.9,1.1
				c0.3,0.4,0.6,0.7,0.9,1.1c0.3,0.4,0.6,0.7,0.9,1.1c0.3,0.4,0.6,0.8,0.8,1.1c0.3,0.4,0.5,0.8,0.8,1.2s0.5,0.8,0.8,1.2
				c0.3,0.4,0.5,0.8,0.8,1.2c0.2,0.4,0.5,0.8,0.7,1.2c0.2,0.4,0.5,0.8,0.7,1.2c0.2,0.4,0.4,0.8,0.7,1.3c0.2,0.4,0.4,0.8,0.6,1.3
				c0.2,0.4,0.4,0.9,0.6,1.3c0.2,0.4,0.4,0.9,0.6,1.3c0.2,0.4,0.4,0.9,0.5,1.3c0.2,0.4,0.3,0.9,0.5,1.3c0.2,0.5,0.3,0.9,0.5,1.4
				c0.2,0.5,0.3,0.9,0.4,1.4c0.1,0.5,0.3,0.9,0.4,1.4c0.1,0.5,0.3,0.9,0.4,1.4c0.1,0.5,0.2,0.9,0.3,1.4c0.1,0.5,0.2,0.9,0.3,1.4
				c0.1,0.5,0.2,1,0.3,1.4c0.1,0.5,0.2,1,0.2,1.5c0.1,0.5,0.1,1,0.2,1.5c0.1,0.5,0.1,1,0.2,1.5c0.1,0.5,0.1,1,0.1,1.5
				c0,0.5,0.1,1,0.1,1.5c0,0.5,0,1,0.1,1.5c0,0.5,0,1,0,1.5c0,0.1,0,0.1,0,0.2v157.3c0,1.7,1.4,3.1,3.1,3.1c1.7,0,3.1-1.4,3.1-3.1
				V146.1c0-0.1,0-0.1,0-0.2C201.4,145.4,201.4,144.9,201.4,144.4z"/>
			<path class="st15" d="M205.4,91.9c-0.4-0.6-0.9-1.1-1.3-1.6c-0.4-0.5-0.9-1.1-1.4-1.6c-0.5-0.5-0.9-1.1-1.4-1.6
				c-0.5-0.5-0.9-1-1.4-1.5c-0.5-0.5-1-1-1.5-1.5c-0.5-0.5-1-1-1.5-1.5c-0.5-0.5-1-1-1.5-1.4c-0.5-0.5-1-0.9-1.6-1.4
				c-0.5-0.5-1.1-0.9-1.6-1.4c-0.5-0.4-1.1-0.9-1.6-1.3c-0.6-0.4-1.1-0.9-1.7-1.3c-0.6-0.4-1.1-0.8-1.7-1.2
				c-0.6-0.4-1.2-0.8-1.7-1.2c-0.6-0.4-1.2-0.8-1.8-1.2c-0.6-0.4-1.2-0.8-1.8-1.1c-0.6-0.4-1.2-0.7-1.8-1.1c-0.6-0.4-1.2-0.7-1.9-1
				c-0.6-0.3-1.2-0.7-1.9-1c-0.6-0.3-1.3-0.6-1.9-0.9c-0.6-0.3-1.3-0.6-1.9-0.9c-0.6-0.3-1.3-0.6-2-0.9c-0.7-0.3-1.3-0.5-2-0.8
				c-0.7-0.3-1.3-0.5-2-0.8c-0.7-0.2-1.3-0.5-2-0.7c-0.7-0.2-1.4-0.5-2.1-0.7c-0.7-0.2-1.4-0.4-2.1-0.6c-0.7-0.2-1.4-0.4-2.1-0.6
				c-0.7-0.2-1.4-0.4-2.1-0.5c-0.7-0.2-1.4-0.3-2.1-0.5c-0.7-0.1-1.4-0.3-2.2-0.4c-0.7-0.1-1.4-0.2-2.2-0.4
				c-0.7-0.1-1.5-0.2-2.2-0.3c-0.7-0.1-1.5-0.2-2.2-0.3c-0.7-0.1-1.5-0.1-2.2-0.2c-0.7-0.1-1.5-0.1-2.2-0.1c-0.7,0-1.5-0.1-2.2-0.1
				c-1.5,0-3,0-4.5,0c-0.8,0-1.5,0-2.3,0.1c-0.7,0-1.5,0.1-2.2,0.1c-0.7,0.1-1.5,0.1-2.2,0.2c-0.7,0.1-1.5,0.2-2.2,0.3
				c-0.7,0.1-1.5,0.2-2.2,0.3c-0.7,0.1-1.5,0.2-2.2,0.4c-0.7,0.1-1.4,0.3-2.2,0.4c-0.7,0.1-1.4,0.3-2.1,0.5
				c-0.7,0.2-1.4,0.3-2.1,0.5c-0.7,0.2-1.4,0.4-2.1,0.6c-0.7,0.2-1.4,0.4-2.1,0.6c-0.7,0.2-1.4,0.4-2,0.7c-0.7,0.2-1.4,0.5-2,0.7
				c-0.7,0.2-1.3,0.5-2,0.8c-0.7,0.3-1.3,0.5-2,0.8c-0.7,0.3-1.3,0.6-2,0.9c-0.6,0.3-1.3,0.6-1.9,0.9c-0.6,0.3-1.3,0.6-1.9,0.9
				c-0.6,0.3-1.3,0.7-1.9,1c-0.6,0.3-1.2,0.7-1.8,1c-0.6,0.4-1.2,0.7-1.8,1.1c-0.6,0.4-1.2,0.7-1.8,1.1c-0.6,0.4-1.2,0.8-1.8,1.2
				c-0.6,0.4-1.2,0.8-1.7,1.2c-0.6,0.4-1.1,0.8-1.7,1.2c-0.6,0.4-1.1,0.8-1.7,1.3c-0.6,0.4-1.1,0.9-1.6,1.3
				c-0.5,0.4-1.1,0.9-1.6,1.4c-0.5,0.5-1.1,0.9-1.6,1.4c-0.5,0.5-1,1-1.5,1.4c-0.5,0.5-1,1-1.5,1.5c-0.5,0.5-1,1-1.5,1.5
				c-0.5,0.5-1,1-1.4,1.5c-0.5,0.5-0.9,1-1.4,1.6c-0.5,0.5-0.9,1.1-1.4,1.6c-0.4,0.5-0.9,1.1-1.3,1.6c-0.4,0.6-0.9,1.1-1.3,1.7
				c-0.4,0.6-0.8,1.1-1.2,1.7c-0.4,0.6-0.8,1.1-1.2,1.7c-0.4,0.6-0.8,1.2-1.2,1.8c-0.4,0.6-0.8,1.2-1.1,1.8
				c-0.4,0.6-0.7,1.2-1.1,1.8c-0.4,0.6-0.7,1.2-1,1.9c-0.3,0.6-0.7,1.2-1,1.9c-0.3,0.6-0.6,1.3-0.9,1.9c-0.3,0.6-0.6,1.3-0.9,1.9
				c-0.3,0.6-0.6,1.3-0.9,2c-0.3,0.7-0.5,1.3-0.8,2c-0.3,0.7-0.5,1.3-0.8,2c-0.2,0.7-0.5,1.3-0.7,2c-0.2,0.7-0.5,1.4-0.7,2.1
				c-0.2,0.7-0.4,1.4-0.6,2.1c-0.2,0.7-0.4,1.4-0.6,2.1c-0.2,0.7-0.4,1.4-0.5,2.1c-0.2,0.7-0.3,1.4-0.5,2.1
				c-0.1,0.7-0.3,1.4-0.4,2.2c-0.1,0.7-0.2,1.4-0.4,2.2c-0.1,0.7-0.2,1.5-0.3,2.2c-0.1,0.7-0.2,1.5-0.3,2.2
				c-0.1,0.7-0.1,1.5-0.2,2.2c-0.1,0.7-0.1,1.5-0.1,2.2c0,0.7-0.1,1.5-0.1,2.2c0,0.7,0,1.3,0,2c0,0.1-0.1,0.2-0.1,0.3
				c0,2.3,0,4.5-0.1,6.8c-0.1,2.3-0.1,4.5-0.3,6.8c-0.1,2.2-0.3,4.5-0.4,6.7c-0.2,2.2-0.4,4.5-0.6,6.7c-0.2,2.2-0.5,4.4-0.8,6.6
				c-0.3,2.2-0.6,4.4-0.9,6.6c-0.3,2.2-0.7,4.4-1.1,6.5c-0.4,2.2-0.8,4.3-1.2,6.5c-0.4,2.1-0.9,4.3-1.4,6.4c-0.5,2.1-1,4.2-1.5,6.3
				c-0.5,2.1-1.1,4.2-1.7,6.3c-0.6,2.1-1.2,4.2-1.9,6.2c-0.6,2.1-1.3,4.1-2,6.2c-0.7,2-1.4,4.1-2.1,6.1c-0.7,2-1.5,4-2.3,6
				c-0.8,2-1.6,4-2.4,5.9c-0.4,1-0.9,2-1.3,3c-0.1,0.1-0.3,0.2-0.4,0.3c-0.7,0.7-1,1.7-0.8,2.6c-0.9,1.9-1.8,3.8-2.7,5.7
				c-0.9,1.9-1.9,3.8-2.8,5.7c-1,1.9-2,3.8-3,5.6c-1,1.9-2,3.7-3.1,5.6c-1.1,1.8-2.1,3.7-3.2,5.5c-1.1,1.8-2.2,3.6-3.4,5.4
				c-1.1,1.8-2.3,3.5-3.5,5.3c-1.2,1.8-2.4,3.5-3.6,5.2c-1.2,1.7-2.5,3.4-3.7,5.1c-1.3,1.7-2.5,3.4-3.9,5c-1.3,1.7-2.6,3.3-4,4.9
				c-1.3,1.6-2.7,3.2-4.1,4.8c-1.4,1.6-2.8,3.2-4.2,4.7c-1.4,1.6-2.9,3.1-4.3,4.6c-1.5,1.5-2.9,3-4.4,4.5c-1.5,1.5-3,3-4.5,4.4
				c-1.2,1.2-1.3,3.2-0.1,4.4c0.6,0.6,1.4,1,2.3,1c0.8,0,1.6-0.3,2.2-0.9c1.6-1.5,3.1-3,4.6-4.5c0.7-0.7,1.4-1.4,2-2.1
				c0.3,0.2,0.5,0.4,0.9,0.7l1,0.8c1.5,1.3,3.1,2.5,4.6,3.7c1.6,1.2,3.1,2.4,4.7,3.6c1.6,1.2,3.2,2.4,4.8,3.5
				c1.6,1.2,3.2,2.3,4.9,3.4c0.5,0.4,1.1,0.5,1.7,0.5c1,0,2-0.5,2.6-1.4c1-1.4,0.6-3.4-0.8-4.3c-1.6-1.1-3.2-2.2-4.8-3.3
				c-1.6-1.1-3.1-2.3-4.7-3.4c-1.5-1.2-3.1-2.3-4.6-3.5c-1.5-1.2-3-2.4-4.5-3.6l-1-0.9c-0.2-0.1-0.3-0.3-0.5-0.4
				c0.9-0.9,1.7-1.8,2.5-2.7c1.4-1.6,2.9-3.2,4.3-4.8c1.2-1.4,2.5-2.9,3.7-4.3c0,0,0.1,0.1,0.1,0.1l0.9,0.7c1.4,1.1,2.8,2.3,4.2,3.4
				c1.4,1.1,2.8,2.2,4.3,3.3c1.4,1.1,2.9,2.1,4.4,3.2c1.5,1,2.9,2.1,4.4,3.1c1.5,1,3,2,4.5,3c1.5,1,3,1.9,4.6,2.9
				c1.5,0.9,3.1,1.9,4.7,2.7c1.6,0.9,3.1,1.8,4.7,2.6c1.6,0.9,3.2,1.7,4.8,2.5c1.6,0.8,3.2,1.6,4.9,2.4c1.6,0.8,3.3,1.6,4.9,2.3
				c1.7,0.8,3.3,1.5,5,2.2c1.7,0.7,3.4,1.4,5.1,2.1c1.7,0.7,3.4,1.3,5.1,1.9c0.4,0.1,0.7,0.2,1.1,0.2c1.3,0,2.5-0.8,2.9-2
				c0.6-1.6-0.2-3.4-1.9-4c-1.7-0.6-3.3-1.2-5-1.9c-1.6-0.6-3.3-1.3-4.9-2c-1.6-0.7-3.2-1.4-4.9-2.1c-1.6-0.7-3.2-1.5-4.8-2.2
				c-1.6-0.8-3.2-1.5-4.7-2.4c-1.6-0.8-3.1-1.6-4.7-2.5c-1.5-0.8-3.1-1.7-4.6-2.6c-1.5-0.9-3-1.8-4.5-2.7c-1.5-0.9-3-1.8-4.5-2.8
				c-1.5-0.9-2.9-1.9-4.4-2.9c-1.4-1-2.9-2-4.3-3c-1.4-1-2.8-2-4.2-3.1c-1.4-1-2.8-2.1-4.2-3.2c-1.4-1.1-2.7-2.2-4.1-3.3l-0.9-0.8
				c-0.1,0-0.1-0.1-0.2-0.1c0.2-0.3,0.4-0.5,0.6-0.8c1.3-1.7,2.6-3.4,3.9-5.1c1.3-1.7,2.6-3.5,3.8-5.2c0.5-0.7,1-1.4,1.5-2.1
				c0.6,0.5,1.1,1,1.7,1.4c1.2,1,2.5,2,3.8,3c1.3,1,2.5,2,3.8,2.9c1.3,1,2.6,1.9,3.9,2.9c1.3,0.9,2.6,1.9,4,2.8
				c1.3,0.9,2.7,1.8,4.1,2.7c1.4,0.9,2.7,1.7,4.1,2.6c1.4,0.8,2.8,1.7,4.2,2.5c1.4,0.8,2.8,1.6,4.2,2.4c1.4,0.8,2.9,1.5,4.3,2.3
				c1.4,0.7,2.9,1.5,4.4,2.2c1.5,0.7,2.9,1.4,4.4,2.1c1.5,0.7,3,1.3,4.5,2c1.5,0.6,3,1.3,4.5,1.9c1.5,0.6,3.1,1.2,4.6,1.7
				c1.5,0.6,3.1,1.1,4.7,1.6c1.6,0.5,3.1,1,4.7,1.5c1.6,0.5,3.2,1,4.8,1.4c1.6,0.5,3.2,0.9,4.8,1.3c1.6,0.4,3.2,0.8,4.8,1.2
				c1.6,0.4,3.3,0.7,4.9,1.1c1.6,0.3,3.3,0.7,4.9,0.9c1.7,0.3,3.3,0.6,5,0.8c1.7,0.3,3.3,0.5,5,0.7c1.7,0.2,3.4,0.4,5.1,0.6
				c1.7,0.2,3.4,0.3,5.1,0.5c1.7,0.1,3.4,0.2,5.1,0.3c1.7,0.1,3.4,0.2,5.2,0.2c1.7,0,3.5,0.1,5.2,0.1c1.7,0,3.5,0,5.2-0.1
				c1.7,0,3.4-0.1,5.2-0.2c1.7-0.1,3.4-0.2,5.1-0.3c1.7-0.1,3.4-0.3,5.1-0.5c1.7-0.2,3.4-0.4,5.1-0.6c1.7-0.2,3.4-0.4,5-0.7
				c1.7-0.3,3.3-0.5,5-0.8c0.1,0,0.3-0.1,0.4-0.2v17.2c-1.4,0.2-2.7,0.4-4.1,0.6c-1.8,0.2-3.6,0.4-5.5,0.6c-1.8,0.2-3.7,0.3-5.5,0.5
				c-1.8,0.1-3.7,0.3-5.6,0.4c-1.9,0.1-3.7,0.2-5.6,0.2c-3.7,0.1-7.5,0.1-11.3,0c-1.9,0-3.7-0.1-5.6-0.2c-1.9-0.1-3.7-0.2-5.6-0.4
				c-1.8-0.1-3.7-0.3-5.5-0.5c-1.8-0.2-3.7-0.4-5.5-0.6c-1.8-0.2-3.6-0.5-5.4-0.8c-1.8-0.3-3.6-0.6-5.4-0.9c-1.8-0.3-3.6-0.7-5.3-1
				c-1.7-0.3-3.3,0.7-3.7,2.4c-0.3,1.7,0.7,3.3,2.4,3.7c1.8,0.4,3.7,0.7,5.5,1.1c1.8,0.3,3.7,0.6,5.5,0.9c1.9,0.3,3.7,0.5,5.6,0.8
				c1.9,0.2,3.7,0.5,5.6,0.6c1.9,0.2,3.8,0.4,5.7,0.5c1.9,0.1,3.8,0.3,5.7,0.4c1.9,0.1,3.8,0.2,5.7,0.2c1.9,0,3.8,0.1,5.8,0.1
				c1.9,0,3.9,0,5.8-0.1c1.9,0,3.8-0.1,5.7-0.2c1.9-0.1,3.8-0.2,5.7-0.4c1.9-0.1,3.8-0.3,5.7-0.5c1.9-0.2,3.8-0.4,5.6-0.6
				c1.1-0.1,2.2-0.3,3.3-0.5v16c-1.6,0.2-3.3,0.5-5,0.7c-2,0.3-4,0.5-6,0.7c-2,0.2-4.1,0.4-6.1,0.5c-2,0.2-4.1,0.3-6.1,0.4
				c-2.1,0.1-4.1,0.2-6.2,0.2c-4.1,0.1-8.3,0.1-12.4,0c-2.1-0.1-4.1-0.1-6.2-0.2c-2.1-0.1-4.1-0.2-6.1-0.4c-2-0.2-4.1-0.3-6.1-0.5
				c-2-0.2-4-0.4-6-0.7c-2-0.3-4-0.5-6-0.8c-2-0.3-4-0.6-6-1c-2-0.4-3.9-0.7-5.9-1.1c-2-0.4-3.9-0.8-5.8-1.3
				c-1.9-0.4-3.9-0.9-5.8-1.4c-1.9-0.5-3.8-1-5.7-1.6c-1.9-0.5-3.8-1.1-5.7-1.7c-1.9-0.6-3.8-1.2-5.6-1.8c-1.9-0.6-3.7-1.3-5.6-2
				c-1.8-0.7-3.7-1.4-5.5-2.1c-1.8-0.7-3.6-1.5-5.4-2.2c-1.8-0.8-3.6-1.5-5.4-2.3c-1.8-0.8-3.5-1.6-5.3-2.5
				c-1.8-0.8-3.5-1.7-5.2-2.6c-1.7-0.9-3.4-1.8-5.2-2.7c-1.5-0.8-3.4-0.3-4.2,1.3c-0.8,1.5-0.3,3.4,1.3,4.2c1.7,1,3.5,1.9,5.3,2.8
				c1.8,0.9,3.6,1.8,5.4,2.7c1.8,0.9,3.6,1.7,5.4,2.5c1.8,0.8,3.7,1.6,5.5,2.4c1.8,0.8,3.7,1.5,5.6,2.3c1.9,0.7,3.7,1.5,5.6,2.1
				c1.9,0.7,3.8,1.4,5.7,2c1.9,0.6,3.8,1.3,5.8,1.9c1.9,0.6,3.9,1.2,5.8,1.7c2,0.6,3.9,1.1,5.9,1.6c2,0.5,4,1,5.9,1.5
				c2,0.5,4,0.9,6,1.3c2,0.4,4,0.8,6.1,1.2c2,0.4,4.1,0.7,6.1,1c2,0.3,4.1,0.6,6.2,0.9c2.1,0.3,4.1,0.5,6.2,0.7
				c2.1,0.2,4.2,0.4,6.2,0.6c2.1,0.2,4.2,0.3,6.3,0.4c2.1,0.1,4.2,0.2,6.3,0.2c2.1,0.1,4.2,0.1,6.4,0.1s4.3,0,6.4-0.1
				c2.1-0.1,4.2-0.1,6.3-0.2c2.1-0.1,4.2-0.2,6.3-0.4c2.1-0.2,4.2-0.3,6.2-0.6c2.1-0.2,4.1-0.4,6.2-0.7c1.4-0.2,2.8-0.4,4.2-0.6
				v17.1c-2,0.3-4,0.5-6,0.7c-2.2,0.2-4.4,0.4-6.7,0.6c-2.2,0.2-4.5,0.3-6.7,0.4c-2.2,0.1-4.5,0.2-6.8,0.3c-4.5,0.1-9.1,0.1-13.6,0
				c-2.3-0.1-4.5-0.1-6.8-0.3c-2.2-0.1-4.5-0.3-6.7-0.4c-2.2-0.2-4.5-0.4-6.7-0.6c-2.2-0.2-4.4-0.5-6.6-0.8
				c-2.2-0.3-4.4-0.6-6.6-0.9c-1.7-0.3-3.3,0.9-3.6,2.6c-0.3,1.7,0.9,3.3,2.6,3.6c2.2,0.3,4.5,0.7,6.7,0.9c2.3,0.3,4.5,0.5,6.8,0.8
				c2.3,0.2,4.5,0.4,6.8,0.6c2.3,0.2,4.6,0.3,6.9,0.4c2.3,0.1,4.6,0.2,6.9,0.3c2.3,0.1,4.6,0.1,7,0.1c2.3,0,4.6,0,7-0.1
				c2.3-0.1,4.6-0.1,6.9-0.3c2.3-0.1,4.6-0.3,6.9-0.4c2.3-0.2,4.6-0.4,6.8-0.6c1.8-0.2,3.6-0.4,5.4-0.6v16.4
				c-2.1,0.3-4.1,0.5-6.2,0.7c-2.4,0.2-4.8,0.5-7.2,0.6c-2.4,0.2-4.9,0.3-7.3,0.5c-2.4,0.1-4.9,0.2-7.3,0.3c-4.9,0.1-9.8,0.1-14.7,0
				c-2.5-0.1-4.9-0.2-7.3-0.3c-2.4-0.1-4.9-0.3-7.3-0.5c-2.4-0.2-4.8-0.4-7.2-0.6c-1.7-0.2-3.3,1.1-3.4,2.8
				c-0.2,1.7,1.1,3.3,2.8,3.4c2.5,0.2,4.9,0.5,7.4,0.7c2.5,0.2,5,0.3,7.4,0.5c2.5,0.1,5,0.2,7.5,0.3c2.5,0.1,5,0.1,7.5,0.1
				c2.5,0,5,0,7.5-0.1c2.5-0.1,5-0.2,7.5-0.3c2.5-0.1,5-0.3,7.5-0.5c2.5-0.2,4.9-0.4,7.4-0.7c1.9-0.2,3.7-0.4,5.6-0.6v16.4
				c-2.2,0.3-4.5,0.5-6.7,0.8c-2.6,0.3-5.2,0.5-7.8,0.7c-2.6,0.2-5.3,0.4-7.9,0.5c-2.6,0.1-5.2,0.2-7.9,0.3
				c-5.3,0.1-10.6,0.1-15.9,0c-2.6-0.1-5.3-0.2-7.9-0.3c-2.6-0.1-5.2-0.3-7.8-0.5c-2.6-0.2-5.2-0.4-7.8-0.7
				c-2.6-0.3-5.2-0.6-7.7-0.9c-2.6-0.3-5.1-0.7-7.7-1.1c-2.6-0.4-5.1-0.8-7.7-1.3c-2.5-0.5-5-0.9-7.6-1.4c-2.5-0.5-5-1.1-7.5-1.6
				c-2.5-0.6-5-1.2-7.4-1.8c-2.5-0.6-4.9-1.3-7.4-2c-2.5-0.7-4.9-1.4-7.3-2.2c-2.4-0.7-4.8-1.5-7.2-2.3c-2.4-0.8-4.8-1.7-7.2-2.5
				c-2.3-0.9-4.7-1.8-7-2.7c-2.3-0.9-4.7-1.9-7-2.8c-1.6-0.7-3.4,0.1-4.1,1.7c-0.7,1.6,0.1,3.4,1.7,4.1c2.4,1,4.7,2,7.1,2.9
				c2.4,0.9,4.8,1.9,7.2,2.7c2.4,0.9,4.8,1.7,7.3,2.6c2.4,0.8,4.9,1.6,7.3,2.4c2.5,0.8,5,1.5,7.5,2.2c2.5,0.7,5,1.4,7.5,2
				c2.5,0.6,5,1.3,7.6,1.9c2.5,0.6,5.1,1.1,7.7,1.7c2.6,0.5,5.1,1,7.7,1.5c2.6,0.5,5.2,0.9,7.8,1.3c2.6,0.4,5.2,0.8,7.8,1.1
				c2.6,0.3,5.2,0.6,7.9,0.9c2.6,0.3,5.3,0.5,8,0.7c2.7,0.2,5.3,0.4,8,0.5c2.7,0.1,5.4,0.2,8.1,0.3c2.7,0.1,5.4,0.1,8.1,0.1
				s5.4,0,8.1-0.1c2.7-0.1,5.4-0.2,8-0.3c2.7-0.1,5.4-0.3,8.1-0.5c2.7-0.2,5.3-0.4,8-0.7c2-0.2,4.1-0.5,6.1-0.7v17.2
				c-2,0.2-3.9,0.4-5.9,0.5c-2.8,0.2-5.7,0.4-8.5,0.5c-2.7,0.1-5.6,0.2-8.4,0.3c-5.7,0.1-11.4,0.1-17,0c-2.8-0.1-5.7-0.2-8.5-0.3
				c-2.8-0.1-5.6-0.3-8.4-0.5c-2.8-0.2-5.6-0.5-8.4-0.7c-2.8-0.3-5.6-0.6-8.3-1c-2.7-0.3-5.5-0.7-8.2-1.2c-2.8-0.4-5.5-0.9-8.3-1.4
				c-2.7-0.5-5.4-1-8.1-1.6c-2.7-0.6-5.4-1.1-8.1-1.8c-2.7-0.6-5.3-1.3-8-1.9c-1.7-0.4-3.4,0.6-3.8,2.2c-0.4,1.7,0.6,3.4,2.2,3.8
				c2.7,0.7,5.4,1.4,8.1,2c2.7,0.6,5.5,1.2,8.2,1.8c2.7,0.6,5.5,1.1,8.3,1.6c2.8,0.5,5.6,1,8.4,1.4c2.8,0.4,5.6,0.8,8.4,1.2
				c2.8,0.4,5.6,0.7,8.5,1c2.8,0.3,5.7,0.5,8.5,0.8c2.9,0.2,5.7,0.4,8.6,0.5c2.9,0.1,5.8,0.3,8.6,0.3c2.9,0.1,5.8,0.1,8.7,0.1
				s5.8,0,8.7-0.1c2.9-0.1,5.8-0.2,8.6-0.3c2.9-0.1,5.8-0.3,8.7-0.5c1.8-0.1,3.6-0.3,5.4-0.5v16.6c-2.3,0.2-4.6,0.4-6.9,0.6
				c-3.1,0.2-6.1,0.4-9.1,0.6c-2.9,0.1-5.9,0.3-9,0.3c-5.9,0.1-12.3,0.1-18.2,0c-3-0.1-6-0.2-9.1-0.3c-2.9-0.1-5.9-0.3-9-0.6
				c-3-0.2-6-0.5-8.9-0.8c-3-0.3-6-0.6-8.9-1c-2.9-0.4-5.8-0.8-8.8-1.2c-1.7-0.3-3.3,0.9-3.6,2.6c-0.3,1.7,0.9,3.3,2.6,3.6
				c3,0.5,5.9,0.9,8.9,1.2c3,0.4,6,0.7,9.1,1c3,0.3,6,0.6,9.1,0.8c3.1,0.2,6.2,0.4,9.1,0.6c3.1,0.2,6.1,0.3,9.2,0.4
				c3,0.1,6.1,0.1,9.3,0.1c3.1,0,6.3,0,9.3-0.1c3.1-0.1,6.2-0.2,9.1-0.3c3-0.1,6.1-0.3,9.2-0.6c2.1-0.2,4.2-0.4,6.4-0.6v1
				c0,1.7,1.4,3.1,3.1,3.1s3.1-1.4,3.1-3.1V314.8c0-1.7-1.4-3.1-3.1-3.1s-3.1,1.4-3.1,3.1v0.2c-0.4-0.1-0.9-0.1-1.3,0
				c-1.4,0.3-2.8,0.6-4.2,0.8c-1.4,0.3-2.8,0.5-4.3,0.7c-1.4,0.2-2.9,0.4-4.3,0.6c-1.4,0.2-2.9,0.3-4.3,0.5
				c-1.4,0.1-2.9,0.3-4.4,0.4c-1.5,0.1-2.9,0.2-4.4,0.3c-1.5,0.1-2.9,0.1-4.4,0.2c-3,0.1-5.9,0.1-8.9,0c-1.5,0-2.9-0.1-4.4-0.2
				c-1.5-0.1-2.9-0.2-4.4-0.3c-1.5-0.1-2.9-0.2-4.4-0.4c-1.4-0.1-2.9-0.3-4.3-0.5c-1.4-0.2-2.9-0.4-4.3-0.6
				c-1.4-0.2-2.8-0.5-4.3-0.7c-1.4-0.3-2.8-0.5-4.2-0.8c-1.4-0.3-2.8-0.6-4.2-0.9c-1.4-0.3-2.8-0.7-4.2-1c-1.4-0.4-2.7-0.7-4.1-1.1
				c-1.4-0.4-2.7-0.8-4.1-1.2c-1.4-0.4-2.7-0.9-4-1.3c-1.3-0.5-2.7-0.9-4-1.4c-1.3-0.5-2.6-1-3.9-1.5c-1.3-0.5-2.6-1-3.9-1.6
				c-1.3-0.5-2.6-1.1-3.8-1.7c-1.3-0.6-2.5-1.2-3.8-1.8c-1.3-0.6-2.5-1.2-3.7-1.9c-1.2-0.6-2.5-1.3-3.7-1.9c-1.2-0.7-2.4-1.3-3.6-2
				s-2.4-1.4-3.6-2.1c-1.2-0.7-2.4-1.5-3.5-2.2c-1.2-0.7-2.3-1.5-3.5-2.3c-1.1-0.8-2.3-1.6-3.4-2.4c-1.1-0.8-2.2-1.6-3.4-2.4
				c-1.1-0.8-2.2-1.7-3.3-2.5c-1.1-0.9-2.2-1.7-3.2-2.6c-1.1-0.9-2.1-1.8-3.2-2.7c-0.5-0.4-1-0.9-1.5-1.4c0.1-0.2,0.2-0.3,0.3-0.5
				c1-1.9,2.1-3.8,3-5.8c1-1.9,2-3.9,2.9-5.9c0.5-1,1-2.1,1.5-3.1c0.6,0.6,1.2,1.1,1.8,1.7c0.9,0.8,1.9,1.7,2.8,2.5
				c0.9,0.8,1.9,1.6,2.9,2.4c1,0.8,1.9,1.6,2.9,2.3c1,0.8,2,1.5,3,2.3c1,0.7,2,1.5,3,2.2c1,0.7,2,1.4,3.1,2.1c1,0.7,2.1,1.4,3.1,2.1
				c1.1,0.7,2.1,1.3,3.2,2c0.5,0.3,1.1,0.5,1.6,0.5c1.1,0,2.1-0.5,2.7-1.5c0.9-1.5,0.4-3.4-1.1-4.3c-1-0.6-2-1.3-3.1-1.9
				c-1-0.6-2-1.3-3-2c-1-0.7-2-1.4-3-2.1c-1-0.7-1.9-1.4-2.9-2.1c-1-0.7-1.9-1.4-2.9-2.2c-0.9-0.7-1.9-1.5-2.8-2.3
				c-0.9-0.8-1.8-1.5-2.7-2.3c-0.9-0.8-1.8-1.6-2.7-2.4c-0.9-0.8-1.8-1.6-2.6-2.4c-0.2-0.2-0.4-0.4-0.7-0.7c0.4-0.9,0.8-1.8,1.2-2.8
				c0.9-2,1.7-4,2.5-6.1c0.8-2,1.6-4.1,2.3-6.2c0.2-0.6,0.4-1.2,0.6-1.7c0.3,0.3,0.6,0.6,0.9,0.9c0.7,0.8,1.5,1.5,2.2,2.3
				c0.8,0.8,1.5,1.5,2.3,2.2c0.8,0.7,1.6,1.5,2.3,2.2c0.8,0.7,1.6,1.4,2.4,2.1c0.8,0.7,1.6,1.4,2.4,2.1c0.8,0.7,1.7,1.3,2.5,2
				c0.8,0.7,1.7,1.3,2.5,1.9c0.9,0.6,1.7,1.3,2.6,1.9c0.9,0.6,1.7,1.2,2.6,1.8c0.9,0.6,1.8,1.2,2.7,1.8c0.9,0.6,1.8,1.1,2.7,1.7
				c0.9,0.6,1.8,1.1,2.8,1.6c0.9,0.5,1.9,1.1,2.8,1.6c0.9,0.5,1.9,1,2.8,1.5c1,0.5,1.9,1,2.9,1.4c1,0.5,1.9,0.9,2.9,1.4
				c1,0.4,2,0.9,3,1.3c1,0.4,2,0.8,3,1.2c1,0.4,2,0.8,3,1.2c1,0.4,2,0.7,3.1,1.1c1,0.4,2.1,0.7,3.1,1c1,0.3,2.1,0.6,3.1,0.9
				c1.1,0.3,2.1,0.6,3.2,0.9c1.1,0.3,2.1,0.5,3.2,0.8c1.1,0.2,2.2,0.5,3.2,0.7c1.1,0.2,2.2,0.4,3.3,0.6c1.1,0.2,2.2,0.4,3.3,0.5
				c0.2,0,0.3,0,0.5,0c1.5,0,2.8-1.1,3.1-2.7c0.3-1.7-0.9-3.3-2.6-3.6c-1.1-0.2-2.1-0.3-3.1-0.5c-1-0.2-2.1-0.4-3.1-0.6
				c-1-0.2-2.1-0.4-3.1-0.7c-1-0.2-2-0.5-3.1-0.7c-1-0.3-2-0.5-3-0.8c-1-0.3-2-0.6-3-0.9c-1-0.3-2-0.6-3-1c-1-0.3-2-0.7-2.9-1
				c-1-0.4-1.9-0.7-2.9-1.1c-1-0.4-1.9-0.8-2.9-1.2c-0.9-0.4-1.9-0.8-2.8-1.2c-0.9-0.4-1.9-0.9-2.8-1.3c-0.9-0.4-1.8-0.9-2.8-1.4
				c-0.9-0.5-1.8-0.9-2.7-1.4c-0.9-0.5-1.8-1-2.7-1.5c-0.9-0.5-1.8-1-2.6-1.6c-0.9-0.5-1.7-1.1-2.6-1.6c-0.9-0.5-1.7-1.1-2.6-1.7
				c-0.8-0.6-1.7-1.1-2.5-1.7c-0.8-0.6-1.7-1.2-2.5-1.8c-0.8-0.6-1.6-1.2-2.4-1.9c-0.8-0.6-1.6-1.3-2.4-1.9c-0.8-0.6-1.6-1.3-2.3-2
				c-0.8-0.7-1.5-1.3-2.3-2c-0.8-0.7-1.5-1.4-2.2-2.1c-0.7-0.7-1.5-1.4-2.2-2.1c-0.7-0.7-1.4-1.5-2.1-2.2c-0.7-0.7-1.4-1.5-2.1-2.2
				c-0.3-0.4-0.7-0.8-1-1.1c0.4-1.3,0.9-2.7,1.3-4.1c0.7-2.1,1.3-4.2,1.9-6.4c0.6-2.1,1.2-4.3,1.7-6.4c0.2-0.8,0.4-1.7,0.6-2.5
				c0.3,0.4,0.6,0.8,0.9,1.2c0.5,0.7,1.1,1.4,1.6,2.1c0.5,0.7,1.1,1.4,1.7,2.1c0.6,0.7,1.1,1.4,1.7,2c0.6,0.7,1.2,1.3,1.8,2
				c0.6,0.7,1.2,1.3,1.8,1.9c0.6,0.6,1.2,1.3,1.8,1.9c0.6,0.6,1.3,1.2,1.9,1.8c0.6,0.6,1.3,1.2,1.9,1.8c0.7,0.6,1.3,1.2,2,1.8
				c0.7,0.6,1.3,1.1,2,1.7c0.7,0.6,1.4,1.1,2.1,1.7c0.7,0.5,1.4,1.1,2.1,1.6c0.6,0.4,1.2,0.6,1.9,0.6c1,0,1.9-0.4,2.5-1.3
				c1-1.4,0.8-3.3-0.6-4.4c-0.7-0.5-1.3-1-2-1.5c-0.7-0.5-1.3-1-2-1.6c-0.6-0.5-1.3-1.1-1.9-1.6s-1.3-1.1-1.9-1.7
				c-0.6-0.6-1.2-1.1-1.8-1.7c-0.6-0.6-1.2-1.2-1.8-1.7c-0.6-0.6-1.2-1.2-1.7-1.8c-0.6-0.6-1.1-1.2-1.7-1.8
				c-0.6-0.6-1.1-1.2-1.7-1.9c-0.5-0.6-1.1-1.3-1.6-1.9c-0.5-0.6-1.1-1.3-1.6-1.9c-0.5-0.7-1-1.3-1.5-2c-0.5-0.7-1-1.3-1.5-2
				c-0.5-0.7-1-1.4-1.4-2.1c-0.4-0.6-0.7-1.1-1.1-1.7c0.2-0.8,0.3-1.5,0.5-2.3c0.4-2.2,0.9-4.4,1.3-6.6c0.4-2.2,0.8-4.4,1.1-6.7
				c0.3-2.2,0.7-4.5,0.9-6.7c0.3-2,0.5-3.9,0.7-5.9c0.2,0.6,0.4,1.2,0.6,1.8c0.2,0.7,0.5,1.3,0.8,2c0.3,0.7,0.5,1.3,0.8,2
				c0.3,0.7,0.6,1.3,0.9,2c0.3,0.6,0.6,1.3,0.9,1.9c0.3,0.6,0.6,1.3,0.9,1.9c0.3,0.6,0.7,1.3,1,1.9c0.3,0.6,0.7,1.2,1,1.9
				c0.4,0.6,0.7,1.2,1.1,1.8c0.4,0.6,0.7,1.2,1.1,1.8c0.4,0.6,0.8,1.2,1.2,1.8c0.4,0.6,0.8,1.2,1.2,1.7c0.4,0.6,0.8,1.1,1.2,1.7
				c0.4,0.6,0.8,1.1,1.3,1.7c0.4,0.6,0.9,1.1,1.3,1.6c0.4,0.5,0.9,1.1,1.4,1.6c0.5,0.5,0.9,1.1,1.4,1.6c0.5,0.5,1,1,1.4,1.6
				c0.5,0.5,1,1,1.5,1.5c0.5,0.5,1,1,1.5,1.5c0.5,0.5,1,1,1.5,1.4c0.5,0.5,1,0.9,1.6,1.4c0.5,0.5,1.1,0.9,1.6,1.4
				c0.5,0.4,1.1,0.9,1.6,1.3c0.6,0.4,1.1,0.9,1.7,1.3c0.6,0.4,1.1,0.8,1.7,1.2c0.6,0.4,1.2,0.8,1.7,1.2c0.6,0.4,1.2,0.8,1.8,1.2
				c0.6,0.4,1.2,0.8,1.8,1.1c0.6,0.4,1.2,0.7,1.8,1.1c0.6,0.4,1.2,0.7,1.8,1c0.6,0.3,1.2,0.7,1.9,1c0.6,0.3,1.3,0.6,1.9,0.9
				c0.6,0.3,1.3,0.6,1.9,0.9c0.7,0.3,1.3,0.6,2,0.9c0.7,0.3,1.3,0.5,2,0.8c0.7,0.3,1.3,0.5,2,0.8c0.7,0.2,1.3,0.5,2,0.7
				c0.7,0.2,1.4,0.5,2,0.7c0.7,0.2,1.4,0.4,2.1,0.6c0.7,0.2,1.4,0.4,2.1,0.6c0.3,0.1,0.5,0.1,0.8,0.1c1.4,0,2.7-0.9,3-2.4
				c0.4-1.7-0.6-3.4-2.3-3.8c-0.6-0.2-1.3-0.3-1.9-0.5c-0.6-0.2-1.3-0.4-1.9-0.6c-0.6-0.2-1.3-0.4-1.9-0.6c-0.6-0.2-1.3-0.4-1.9-0.7
				c-0.6-0.2-1.2-0.5-1.9-0.7c-0.6-0.2-1.2-0.5-1.8-0.8c-0.6-0.3-1.2-0.5-1.8-0.8c-0.6-0.3-1.2-0.6-1.8-0.8
				c-0.6-0.3-1.2-0.6-1.8-0.9c-0.6-0.3-1.2-0.6-1.7-0.9c-0.6-0.3-1.2-0.6-1.7-1c-0.6-0.3-1.1-0.7-1.7-1c-0.6-0.3-1.1-0.7-1.7-1
				c-0.5-0.4-1.1-0.7-1.6-1.1c-0.5-0.4-1.1-0.7-1.6-1.1c-0.5-0.4-1.1-0.8-1.6-1.2c-0.5-0.4-1-0.8-1.5-1.2c-0.5-0.4-1-0.8-1.5-1.2
				c-0.5-0.4-1-0.8-1.5-1.3c-0.5-0.4-1-0.9-1.5-1.3c-0.5-0.4-1-0.9-1.4-1.3c-0.5-0.4-0.9-0.9-1.4-1.4s-0.9-0.9-1.4-1.4
				c-0.4-0.5-0.9-0.9-1.3-1.4c-0.4-0.5-0.9-1-1.3-1.5c-0.4-0.5-0.8-1-1.3-1.5c-0.4-0.5-0.8-1-1.2-1.5c-0.4-0.5-0.8-1-1.2-1.6
				c-0.4-0.5-0.8-1-1.2-1.6c-0.4-0.5-0.8-1.1-1.1-1.6c-0.4-0.5-0.7-1.1-1.1-1.6c-0.4-0.6-0.7-1.1-1-1.7c-0.3-0.6-0.7-1.1-1-1.7
				c-0.3-0.6-0.6-1.1-1-1.7c-0.3-0.6-0.6-1.2-0.9-1.7c-0.3-0.6-0.6-1.2-0.9-1.8c-0.3-0.6-0.6-1.2-0.8-1.8c-0.3-0.6-0.5-1.2-0.8-1.8
				c-0.3-0.6-0.5-1.2-0.8-1.8c-0.2-0.6-0.5-1.2-0.7-1.9c-0.2-0.6-0.5-1.2-0.7-1.9c-0.2-0.6-0.4-1.3-0.6-1.9
				c-0.2-0.6-0.4-1.3-0.6-1.9c-0.2-0.6-0.4-1.3-0.5-1.9c-0.2-0.6-0.3-1.3-0.5-2c-0.2-0.7-0.3-1.3-0.4-2c-0.1-0.7-0.3-1.3-0.4-2
				c-0.1-0.7-0.2-1.3-0.3-2c-0.1-0.7-0.2-1.4-0.3-2c-0.1-0.7-0.2-1.4-0.2-2c-0.1-0.7-0.1-1.4-0.2-2.1c-0.1-0.7-0.1-1.4-0.1-2.1
				c0-0.7-0.1-1.4-0.1-2.1c0-0.7,0-1.4,0-2.1c0-0.7,0-1.4,0-2.1c0-0.7,0-1.4,0.1-2.1c0-0.7,0.1-1.4,0.1-2.1c0.1-0.7,0.1-1.4,0.2-2.1
				c0.1-0.7,0.1-1.4,0.2-2c0.1-0.7,0.2-1.4,0.3-2c0.1-0.7,0.2-1.3,0.3-2c0.1-0.7,0.2-1.3,0.4-2c0.1-0.7,0.3-1.3,0.4-2
				c0.2-0.7,0.3-1.3,0.5-2c0.2-0.7,0.3-1.3,0.5-1.9c0.2-0.6,0.4-1.3,0.6-1.9c0.2-0.6,0.4-1.3,0.6-1.9c0.2-0.6,0.4-1.3,0.7-1.9
				c0.2-0.6,0.5-1.2,0.7-1.9c0.2-0.6,0.5-1.2,0.8-1.8c0.3-0.6,0.5-1.2,0.8-1.8c0.3-0.6,0.6-1.2,0.8-1.8c0.3-0.6,0.6-1.2,0.9-1.8
				c0.3-0.6,0.6-1.2,0.9-1.7c0.3-0.6,0.6-1.1,1-1.7c0.3-0.6,0.7-1.1,1-1.7c0.3-0.6,0.7-1.1,1-1.7c0.4-0.5,0.7-1.1,1.1-1.6
				c0.4-0.5,0.7-1.1,1.1-1.6c0.4-0.5,0.8-1.1,1.2-1.6c0.4-0.5,0.8-1,1.2-1.6c0.4-0.5,0.8-1,1.2-1.5c0.4-0.5,0.8-1,1.3-1.5
				c0.4-0.5,0.9-1,1.3-1.5c0.4-0.5,0.9-1,1.3-1.4c0.5-0.5,0.9-0.9,1.4-1.4c0.5-0.5,0.9-0.9,1.4-1.4c0.5-0.4,0.9-0.9,1.4-1.3
				c0.5-0.4,1-0.9,1.5-1.3c0.5-0.4,1-0.8,1.5-1.3c0.5-0.4,1-0.8,1.5-1.2c0.5-0.4,1-0.8,1.6-1.2c0.5-0.4,1-0.8,1.6-1.2
				c0.5-0.4,1.1-0.8,1.6-1.1c0.5-0.4,1.1-0.7,1.6-1.1c0.6-0.4,1.1-0.7,1.7-1c0.6-0.3,1.1-0.7,1.7-1c0.6-0.3,1.1-0.6,1.7-1
				c0.6-0.3,1.2-0.6,1.7-0.9c0.6-0.3,1.2-0.6,1.8-0.9c0.6-0.3,1.2-0.6,1.8-0.8c0.6-0.3,1.2-0.5,1.8-0.8c0.6-0.3,1.2-0.5,1.8-0.8
				c0.6-0.2,1.2-0.5,1.9-0.7c0.6-0.2,1.2-0.4,1.9-0.7c0.6-0.2,1.3-0.4,1.9-0.6c0.6-0.2,1.3-0.4,1.9-0.6c0.6-0.2,1.3-0.4,1.9-0.5
				c0.7-0.2,1.3-0.3,2-0.5c0.7-0.2,1.3-0.3,2-0.4c0.7-0.1,1.3-0.3,2-0.4c0.7-0.1,1.3-0.2,2-0.3c0.7-0.1,1.4-0.2,2-0.3
				c0.7-0.1,1.4-0.2,2-0.2c0.7-0.1,1.4-0.1,2.1-0.2c0.7-0.1,1.4-0.1,2.1-0.1s1.4-0.1,2.1-0.1c1.4,0,2.8,0,4.2,0c0.7,0,1.4,0,2.1,0.1
				c0.7,0,1.4,0.1,2.1,0.1c0.7,0.1,1.4,0.1,2.1,0.2c0.7,0.1,1.4,0.1,2,0.2c0.7,0.1,1.4,0.2,2,0.3c0.7,0.1,1.3,0.2,2,0.3
				c0.7,0.1,1.3,0.2,2,0.4c0.7,0.1,1.3,0.3,2,0.4c0.7,0.2,1.3,0.3,2,0.5c0.6,0.2,1.3,0.3,1.9,0.5c0.6,0.2,1.3,0.4,1.9,0.6
				c0.6,0.2,1.3,0.4,1.9,0.6c0.6,0.2,1.3,0.4,1.9,0.7c0.6,0.2,1.2,0.5,1.9,0.7c0.6,0.2,1.2,0.5,1.8,0.8c0.6,0.3,1.2,0.5,1.8,0.8
				c0.6,0.3,1.2,0.6,1.8,0.8c0.6,0.3,1.2,0.6,1.8,0.9c0.6,0.3,1.2,0.6,1.7,0.9c0.6,0.3,1.2,0.6,1.7,1c0.6,0.3,1.1,0.7,1.7,1
				c0.6,0.3,1.1,0.7,1.7,1c0.5,0.4,1.1,0.7,1.6,1.1c0.5,0.4,1.1,0.7,1.6,1.1c0.5,0.4,1.1,0.8,1.6,1.2c0.5,0.4,1,0.8,1.6,1.2
				c0.5,0.4,1,0.8,1.5,1.2c0.5,0.4,1,0.8,1.5,1.3c0.5,0.4,1,0.9,1.5,1.3c0.5,0.4,1,0.9,1.4,1.3c0.5,0.5,0.9,0.9,1.4,1.4
				c0.5,0.5,0.9,0.9,1.4,1.4c0.4,0.5,0.9,0.9,1.3,1.4c0.4,0.5,0.9,1,1.3,1.5c0.4,0.5,0.8,1,1.3,1.5c0.4,0.5,0.8,1,1.2,1.5
				c0.4,0.5,0.8,1,1.2,1.6c1,1.4,3,1.7,4.4,0.6c1.4-1,1.7-3,0.6-4.4C206.3,93,205.9,92.4,205.4,91.9z M26.1,286.6
				c1.1,0.9,2.3,1.8,3.4,2.6c1.1,0.9,2.3,1.7,3.5,2.5c1.2,0.8,2.3,1.6,3.5,2.4c1.2,0.8,2.4,1.6,3.6,2.4c1.2,0.8,2.4,1.5,3.7,2.3
				c1.2,0.7,2.5,1.5,3.7,2.2c1.2,0.7,2.5,1.4,3.8,2.1c1.3,0.7,2.5,1.4,3.8,2c1.3,0.7,2.6,1.3,3.9,1.9c1.3,0.6,2.6,1.2,3.9,1.8
				c1.3,0.6,2.6,1.2,4,1.7c1.3,0.6,2.7,1.1,4,1.6c1.4,0.5,2.7,1.1,4.1,1.6c1.4,0.5,2.7,1,4.1,1.5c1.4,0.5,2.8,0.9,4.2,1.4
				c1.4,0.4,2.8,0.9,4.2,1.3c1.4,0.4,2.8,0.8,4.3,1.2c1.4,0.4,2.9,0.7,4.3,1.1c1.4,0.3,2.9,0.6,4.3,0.9c1.5,0.3,2.9,0.6,4.4,0.8
				c1.5,0.3,2.9,0.5,4.4,0.7c1.5,0.2,3,0.4,4.5,0.6c1.5,0.2,3,0.4,4.5,0.5c1.5,0.2,3,0.3,4.5,0.4c1.5,0.1,3,0.2,4.5,0.3
				c1.5,0.1,3.1,0.1,4.6,0.2c1.5,0,3.1,0.1,4.6,0.1c1.5,0,3.1,0,4.6-0.1c1.5,0,3.1-0.1,4.6-0.2c1.5-0.1,3-0.2,4.6-0.3
				c1.5-0.1,3-0.3,4.5-0.4c1.5-0.2,3-0.3,4.5-0.5c1.5-0.2,3-0.4,4.5-0.6c1.5-0.2,3-0.5,4.4-0.7c1.5-0.3,2.9-0.5,4.4-0.8c0,0,0,0,0,0
				v17.2c-0.5-0.2-1-0.2-1.5-0.1c-1.6,0.3-3.2,0.6-4.8,0.8c-1.6,0.2-3.2,0.5-4.9,0.7c-1.6,0.2-3.3,0.4-4.9,0.6
				c-1.6,0.2-3.3,0.3-4.9,0.4c-1.7,0.1-3.3,0.2-5,0.3c-1.7,0.1-3.3,0.1-5,0.2c-3.4,0.1-6.7,0.1-10.1,0c-1.7,0-3.3-0.1-5-0.2
				c-1.7-0.1-3.3-0.2-5-0.3c-1.7-0.1-3.3-0.3-4.9-0.4c-1.6-0.2-3.3-0.4-4.9-0.6c-1.6-0.2-3.2-0.4-4.9-0.7c-1.6-0.2-3.2-0.5-4.8-0.8
				c-1.6-0.3-3.2-0.6-4.8-0.9c-1.6-0.3-3.2-0.7-4.7-1c-1.6-0.4-3.1-0.7-4.7-1.1c-1.6-0.4-3.1-0.8-4.7-1.3c-1.5-0.4-3.1-0.9-4.6-1.4
				c-1.5-0.5-3-1-4.6-1.5c-1.5-0.5-3-1-4.5-1.6c-1.5-0.5-3-1.1-4.5-1.7c-1.5-0.6-2.9-1.2-4.4-1.8c-1.5-0.6-2.9-1.3-4.4-1.9
				c-1.4-0.7-2.9-1.3-4.3-2c-1.4-0.7-2.8-1.4-4.2-2.1c-1.4-0.7-2.8-1.5-4.2-2.2c-1.4-0.8-2.8-1.5-4.1-2.3c-1.4-0.8-2.7-1.6-4.1-2.4
				c-1.3-0.8-2.7-1.6-4-2.5c-1.3-0.8-2.6-1.7-3.9-2.6c-1.3-0.9-2.6-1.8-3.9-2.7c-1.3-0.9-2.5-1.8-3.8-2.8c-1.3-0.9-2.5-1.9-3.7-2.9
				c-1.2-1-2.4-1.9-3.7-2.9c-0.7-0.6-1.4-1.2-2.2-1.8c0.8-1.1,1.5-2.3,2.3-3.4c1.2-1.8,2.3-3.7,3.4-5.5c1-1.7,2.1-3.5,3.1-5.2
				c0.2,0.2,0.4,0.3,0.6,0.5c1.1,0.9,2.2,1.9,3.3,2.8C23.9,284.8,25,285.7,26.1,286.6z"/>
			<path class="st15" d="M224.1,143.8c0-0.8,0-1.5-0.1-2.2c0-0.7-0.1-1.5-0.1-2.2c-0.1-0.7-0.1-1.5-0.2-2.2
				c-0.1-0.7-0.2-1.5-0.3-2.2c-0.1-0.7-0.2-1.5-0.3-2.2c-0.1-0.7-0.2-1.5-0.4-2.2c-0.1-0.7-0.3-1.4-0.4-2.2
				c-0.1-0.7-0.3-1.4-0.5-2.1c-0.2-0.7-0.3-1.4-0.5-2.1c-0.2-0.7-0.4-1.4-0.6-2.1c-0.2-0.7-0.4-1.4-0.6-2.1c-0.2-0.7-0.4-1.4-0.7-2
				c-0.2-0.7-0.5-1.4-0.7-2c-0.2-0.7-0.5-1.3-0.8-2c-0.3-0.7-0.5-1.3-0.8-2c-0.3-0.7-0.6-1.3-0.9-2c-0.3-0.6-0.6-1.3-0.9-1.9
				c-0.3-0.6-0.6-1.3-0.9-1.9c-0.8-1.5-2.7-2.1-4.2-1.4c-1.5,0.8-2.1,2.7-1.4,4.2c0.3,0.6,0.6,1.2,0.9,1.8c0.3,0.6,0.6,1.2,0.8,1.8
				c0.3,0.6,0.5,1.2,0.8,1.8c0.3,0.6,0.5,1.2,0.8,1.8c0.2,0.6,0.5,1.2,0.7,1.9c0.2,0.6,0.4,1.2,0.7,1.9c0.2,0.6,0.4,1.3,0.6,1.9
				c0.2,0.6,0.4,1.3,0.6,1.9c0.2,0.6,0.4,1.3,0.5,1.9c0.2,0.7,0.3,1.3,0.5,2c0.2,0.7,0.3,1.3,0.4,2c0.1,0.7,0.3,1.3,0.4,2
				c0.1,0.7,0.2,1.3,0.3,2c0.1,0.7,0.2,1.4,0.3,2c0.1,0.7,0.2,1.4,0.2,2c0.1,0.7,0.1,1.4,0.2,2.1c0.1,0.7,0.1,1.4,0.1,2.1
				c0,0.7,0.1,1.4,0.1,2.1c0,0.6,0,1.2,0,1.8c0,0.1-0.1,0.2-0.1,0.3v45c0,1.7,1.4,3.1,3.1,3.1c1.7,0,3.1-1.4,3.1-3.1v-44.6
				c0-0.1,0.1-0.2,0.1-0.4C224.1,145.3,224.1,144.5,224.1,143.8z"/>
			<path class="st15" d="M246.8,143.2c0-0.9-0.1-1.9-0.1-2.8c0-0.9-0.1-1.9-0.2-2.8c-0.1-0.9-0.2-1.9-0.2-2.8
				c-0.1-0.9-0.2-1.9-0.3-2.8c-0.1-0.9-0.2-1.8-0.4-2.8c-0.1-0.9-0.3-1.8-0.5-2.7c-0.2-0.9-0.3-1.8-0.5-2.7
				c-0.2-0.9-0.4-1.8-0.6-2.7c-0.2-0.9-0.4-1.8-0.6-2.7c-0.2-0.9-0.5-1.8-0.7-2.6c-0.2-0.9-0.5-1.7-0.8-2.6
				c-0.3-0.9-0.5-1.7-0.8-2.6c-0.3-0.9-0.6-1.7-0.9-2.6c-0.3-0.8-0.6-1.7-1-2.5c-0.3-0.8-0.7-1.7-1-2.5c-0.3-0.8-0.7-1.6-1.1-2.5
				c-0.4-0.8-0.7-1.6-1.1-2.4c-0.4-0.8-0.8-1.6-1.2-2.4c-0.4-0.8-0.8-1.6-1.2-2.4c-0.4-0.8-0.9-1.6-1.3-2.3
				c-0.4-0.8-0.9-1.5-1.4-2.3s-0.9-1.5-1.4-2.3c-0.5-0.7-1-1.5-1.5-2.2c-0.5-0.7-1-1.5-1.5-2.2c-0.5-0.7-1-1.4-1.6-2.1
				c-0.5-0.7-1.1-1.4-1.6-2.1c-0.5-0.7-1.1-1.4-1.7-2.1c-0.6-0.7-1.1-1.4-1.7-2c-0.6-0.7-1.2-1.3-1.8-2c-0.6-0.7-1.2-1.3-1.8-1.9
				c-0.6-0.6-1.2-1.3-1.8-1.9c-0.6-0.6-1.3-1.2-1.9-1.9c-0.6-0.6-1.3-1.2-1.9-1.8c-0.7-0.6-1.3-1.2-2-1.8c-0.7-0.6-1.3-1.2-2-1.7
				c-0.7-0.6-1.4-1.1-2.1-1.7c-0.7-0.5-1.4-1.1-2.1-1.6c-0.7-0.5-1.4-1.1-2.1-1.6c-0.7-0.5-1.4-1-2.2-1.5c-0.7-0.5-1.5-1-2.2-1.5
				c-0.7-0.5-1.5-0.9-2.3-1.4c-0.8-0.5-1.5-0.9-2.3-1.4c-0.8-0.4-1.5-0.9-2.3-1.3c-0.8-0.4-1.6-0.8-2.4-1.2
				c-0.8-0.4-1.6-0.8-2.4-1.2c-0.8-0.4-1.6-0.8-2.4-1.1c-0.8-0.4-1.6-0.7-2.5-1.1c-0.8-0.3-1.7-0.7-2.5-1c-0.8-0.3-1.7-0.6-2.5-1
				c-0.8-0.3-1.7-0.6-2.6-0.9c-0.9-0.3-1.7-0.6-2.6-0.8c-0.9-0.3-1.7-0.5-2.6-0.8c-0.9-0.2-1.8-0.5-2.6-0.7
				c-0.9-0.2-1.8-0.4-2.7-0.7c-0.9-0.2-1.8-0.4-2.7-0.6c-0.9-0.2-1.8-0.4-2.7-0.5c-0.9-0.2-1.8-0.3-2.7-0.5
				c-0.9-0.1-1.8-0.3-2.8-0.4c-0.9-0.1-1.8-0.2-2.8-0.3c-0.9-0.1-1.9-0.2-2.8-0.2c-0.9-0.1-1.9-0.1-2.8-0.2c-0.9,0-1.9-0.1-2.8-0.1
				c-1.9,0-3.8,0-5.7,0c-0.9,0-1.9,0.1-2.8,0.1c-0.9,0-1.9,0.1-2.8,0.2c-0.9,0.1-1.9,0.2-2.8,0.2c-0.9,0.1-1.9,0.2-2.8,0.3
				c-0.9,0.1-1.8,0.2-2.8,0.4c-0.9,0.1-1.8,0.3-2.7,0.5c-0.9,0.2-1.8,0.3-2.7,0.5c-0.9,0.2-1.8,0.4-2.7,0.6
				c-0.9,0.2-1.8,0.4-2.7,0.6s-1.8,0.5-2.6,0.7c-0.9,0.2-1.7,0.5-2.6,0.8c-0.9,0.3-1.7,0.5-2.6,0.8c-0.9,0.3-1.7,0.6-2.6,0.9
				c-0.8,0.3-1.7,0.6-2.5,1c-0.8,0.3-1.7,0.7-2.5,1c-0.8,0.4-1.6,0.7-2.5,1.1c-0.8,0.4-1.6,0.7-2.4,1.1c-0.8,0.4-1.6,0.8-2.4,1.2
				c-0.8,0.4-1.6,0.8-2.4,1.2c-0.8,0.4-1.6,0.9-2.3,1.3c-0.8,0.4-1.5,0.9-2.3,1.4c-0.8,0.5-1.5,0.9-2.3,1.4c-0.7,0.5-1.5,1-2.2,1.5
				c-0.7,0.5-1.5,1-2.2,1.5c-0.7,0.5-1.4,1-2.2,1.6c-0.7,0.5-1.4,1.1-2.1,1.6c-0.7,0.5-1.4,1.1-2.1,1.7c-0.7,0.6-1.4,1.1-2,1.7
				c-0.7,0.6-1.3,1.2-2,1.8c-0.7,0.6-1.3,1.2-1.9,1.8c-0.6,0.6-1.3,1.2-1.9,1.9c-0.6,0.6-1.2,1.3-1.9,1.9c-0.6,0.6-1.2,1.3-1.8,1.9
				c-0.6,0.7-1.2,1.3-1.8,2c-0.6,0.7-1.1,1.3-1.7,2c-0.6,0.7-1.1,1.4-1.7,2.1c-0.5,0.7-1.1,1.4-1.6,2.1c-0.5,0.7-1.1,1.4-1.6,2.1
				c-0.5,0.7-1,1.4-1.5,2.2c-0.5,0.7-1,1.5-1.5,2.2c-0.5,0.7-0.9,1.5-1.4,2.3c-0.5,0.8-0.9,1.5-1.4,2.3c-0.4,0.8-0.9,1.5-1.3,2.3
				c-0.4,0.8-0.8,1.6-1.2,2.4c-0.4,0.8-0.8,1.6-1.2,2.4c-0.4,0.8-0.8,1.6-1.1,2.4c-0.4,0.8-0.7,1.6-1.1,2.5c-0.4,0.8-0.7,1.7-1,2.5
				c-0.3,0.8-0.6,1.7-1,2.5c-0.3,0.8-0.6,1.7-0.9,2.5c-0.3,0.9-0.6,1.7-0.8,2.6c-0.3,0.9-0.5,1.7-0.8,2.6c-0.2,0.9-0.5,1.8-0.7,2.6
				c-0.2,0.9-0.4,1.8-0.6,2.7c-0.2,0.9-0.4,1.8-0.6,2.7c-0.2,0.9-0.4,1.8-0.5,2.7c-0.2,0.9-0.3,1.8-0.5,2.7
				c-0.1,0.9-0.3,1.8-0.4,2.8c-0.1,0.9-0.2,1.8-0.3,2.8c-0.1,0.9-0.2,1.9-0.2,2.8c-0.1,0.9-0.1,1.9-0.2,2.8c0,0.9-0.1,1.9-0.1,2.8
				c0,0.8,0,1.7,0,2.5c0,0.1-0.1,0.2-0.1,0.3c0,2.1,0,4.1-0.1,6.2c-0.1,2.1-0.1,4.1-0.2,6.2c-0.1,2.1-0.2,4.1-0.4,6.1
				c-0.2,2-0.3,4.1-0.5,6.1c-0.2,2-0.4,4-0.7,6c-0.3,2-0.5,4-0.8,6c-0.3,2-0.6,4-1,5.9c-0.4,2-0.7,3.9-1.1,5.9
				c-0.4,2-0.8,3.9-1.3,5.8c-0.4,1.9-0.9,3.9-1.4,5.8c-0.5,1.9-1,3.8-1.6,5.7c-0.5,1.9-1.1,3.8-1.7,5.7c-0.6,1.9-1.2,3.8-1.8,5.6
				c-0.6,1.6,0.3,3.4,2,4c0.3,0.1,0.7,0.2,1,0.2c1.3,0,2.5-0.8,3-2.1c0.6-1.9,1.3-3.8,1.9-5.8c0.6-1.9,1.2-3.9,1.7-5.8
				c0.6-2,1.1-3.9,1.6-5.9c0.5-2,1-4,1.5-5.9c0.5-2,0.9-4,1.3-6c0.4-2,0.8-4,1.2-6.1c0.4-2,0.7-4.1,1-6.1c0.3-2,0.6-4.1,0.9-6.2
				c0.3-2.1,0.5-4.1,0.7-6.2c0.2-2.1,0.4-4.2,0.6-6.2c0.2-2.1,0.3-4.2,0.4-6.3c0.1-2.1,0.2-4.2,0.2-6.3c0.1-2,0.1-4,0.1-6.1
				c0-0.1,0.1-0.2,0.1-0.3c0-0.9,0-1.8,0-2.7c0-0.9,0.1-1.8,0.1-2.7c0-0.9,0.1-1.8,0.2-2.7c0.1-0.9,0.1-1.8,0.2-2.6
				c0.1-0.9,0.2-1.7,0.3-2.6c0.1-0.9,0.2-1.7,0.4-2.6c0.1-0.9,0.3-1.7,0.4-2.6c0.2-0.9,0.3-1.7,0.5-2.6c0.2-0.8,0.4-1.7,0.6-2.5
				c0.2-0.8,0.4-1.7,0.6-2.5c0.2-0.8,0.4-1.7,0.7-2.5c0.2-0.8,0.5-1.6,0.7-2.5c0.3-0.8,0.5-1.6,0.8-2.4c0.3-0.8,0.6-1.6,0.8-2.4
				c0.3-0.8,0.6-1.6,0.9-2.4c0.3-0.8,0.6-1.6,1-2.4c0.3-0.8,0.7-1.6,1-2.3c0.3-0.8,0.7-1.5,1.1-2.3c0.4-0.8,0.7-1.5,1.1-2.3
				c0.4-0.8,0.8-1.5,1.2-2.2c0.4-0.7,0.8-1.5,1.2-2.2c0.4-0.7,0.8-1.5,1.3-2.2c0.4-0.7,0.9-1.4,1.3-2.1c0.5-0.7,0.9-1.4,1.4-2.1
				c0.5-0.7,0.9-1.4,1.4-2.1c0.5-0.7,1-1.4,1.5-2c0.5-0.7,1-1.3,1.5-2c0.5-0.7,1-1.3,1.6-1.9c0.5-0.6,1.1-1.3,1.6-1.9
				c0.5-0.6,1.1-1.3,1.7-1.9c0.6-0.6,1.1-1.2,1.7-1.8c0.6-0.6,1.2-1.2,1.7-1.8c0.6-0.6,1.2-1.2,1.8-1.7c0.6-0.6,1.2-1.1,1.8-1.7
				c0.6-0.6,1.2-1.1,1.9-1.7c0.6-0.5,1.3-1.1,1.9-1.6c0.6-0.5,1.3-1.1,1.9-1.6c0.7-0.5,1.3-1,2-1.5c0.7-0.5,1.3-1,2-1.5
				c0.7-0.5,1.4-1,2.1-1.4c0.7-0.5,1.4-0.9,2.1-1.4c0.7-0.5,1.4-0.9,2.1-1.3c0.7-0.4,1.4-0.9,2.2-1.3c0.7-0.4,1.5-0.8,2.2-1.2
				c0.7-0.4,1.5-0.8,2.2-1.2c0.7-0.4,1.5-0.8,2.3-1.1c0.8-0.4,1.5-0.7,2.3-1.1c0.8-0.3,1.5-0.7,2.3-1c0.8-0.3,1.6-0.6,2.4-1
				c0.8-0.3,1.6-0.6,2.4-0.9c0.8-0.3,1.6-0.6,2.4-0.8c0.8-0.3,1.6-0.5,2.4-0.8c0.8-0.3,1.6-0.5,2.5-0.7s1.7-0.5,2.5-0.7
				c0.8-0.2,1.7-0.4,2.5-0.6c0.8-0.2,1.7-0.4,2.5-0.6c0.8-0.2,1.7-0.3,2.6-0.5c0.9-0.2,1.7-0.3,2.6-0.4c0.9-0.1,1.7-0.3,2.6-0.4
				c0.9-0.1,1.7-0.2,2.6-0.3c0.9-0.1,1.8-0.2,2.6-0.2c0.9-0.1,1.8-0.1,2.7-0.2c0.9,0,1.8-0.1,2.7-0.1c1.8,0,3.6,0,5.4,0
				c0.9,0,1.8,0.1,2.7,0.1c0.9,0,1.8,0.1,2.7,0.2c0.9,0.1,1.8,0.1,2.6,0.2c0.9,0.1,1.7,0.2,2.6,0.3c0.9,0.1,1.7,0.2,2.6,0.4
				c0.9,0.1,1.7,0.3,2.6,0.4c0.9,0.2,1.7,0.3,2.6,0.5c0.8,0.2,1.7,0.4,2.5,0.6c0.8,0.2,1.7,0.4,2.5,0.6c0.8,0.2,1.7,0.4,2.5,0.7
				c0.8,0.2,1.6,0.5,2.5,0.7c0.8,0.3,1.6,0.5,2.4,0.8c0.8,0.3,1.6,0.6,2.4,0.8c0.8,0.3,1.6,0.6,2.4,0.9c0.8,0.3,1.6,0.6,2.4,1
				c0.8,0.3,1.6,0.7,2.3,1c0.8,0.3,1.5,0.7,2.3,1.1c0.8,0.4,1.5,0.7,2.3,1.1c0.7,0.4,1.5,0.8,2.2,1.2c0.7,0.4,1.5,0.8,2.2,1.2
				c0.7,0.4,1.5,0.8,2.2,1.3c0.7,0.4,1.4,0.9,2.1,1.3c0.7,0.5,1.4,0.9,2.1,1.4c0.7,0.5,1.4,0.9,2.1,1.4c0.7,0.5,1.4,1,2,1.5
				c0.7,0.5,1.3,1,2,1.5c0.7,0.5,1.3,1,2,1.6c0.6,0.5,1.3,1.1,1.9,1.6c0.6,0.5,1.3,1.1,1.9,1.7c0.6,0.6,1.2,1.1,1.8,1.7
				c0.6,0.6,1.2,1.2,1.8,1.7c0.6,0.6,1.2,1.2,1.7,1.8c0.6,0.6,1.1,1.2,1.7,1.8c0.6,0.6,1.1,1.2,1.7,1.9c0.5,0.6,1.1,1.3,1.6,1.9
				c0.5,0.6,1.1,1.3,1.6,1.9c0.5,0.7,1,1.3,1.5,2c0.5,0.7,1,1.3,1.5,2c0.5,0.7,1,1.4,1.4,2.1c0.5,0.7,0.9,1.4,1.4,2.1
				c0.5,0.7,0.9,1.4,1.3,2.1c0.4,0.7,0.9,1.4,1.3,2.2c0.4,0.7,0.8,1.5,1.2,2.2c0.4,0.7,0.8,1.5,1.2,2.2c0.4,0.7,0.8,1.5,1.1,2.3
				c0.4,0.8,0.7,1.5,1.1,2.3c0.3,0.8,0.7,1.5,1,2.3c0.3,0.8,0.6,1.6,1,2.3c0.3,0.8,0.6,1.6,0.9,2.4c0.3,0.8,0.6,1.6,0.8,2.4
				c0.3,0.8,0.5,1.6,0.8,2.4c0.3,0.8,0.5,1.6,0.7,2.5c0.2,0.8,0.5,1.7,0.7,2.5c0.2,0.8,0.4,1.7,0.6,2.5c0.2,0.8,0.4,1.7,0.6,2.5
				c0.2,0.8,0.3,1.7,0.5,2.6c0.2,0.9,0.3,1.7,0.4,2.6c0.1,0.9,0.3,1.7,0.4,2.6c0.1,0.9,0.2,1.7,0.3,2.6c0.1,0.9,0.2,1.8,0.2,2.6
				c0.1,0.9,0.1,1.8,0.2,2.7c0,0.9,0.1,1.8,0.1,2.7c0,0.9,0,1.8,0,2.7c0,0.1,0,0.1,0,0.2V461c0,1.7,1.4,3.1,3.1,3.1s3.1-1.4,3.1-3.1
				V146.1c0-0.1,0-0.1,0-0.2C246.9,145,246.9,144.1,246.8,143.2z"/>
			<path class="st15" d="M129.6,13c-1.1,0.1-2.3,0.1-3.4,0.2c-1.1,0.1-2.2,0.2-3.4,0.3c-1.1,0.1-2.2,0.2-3.3,0.4
				c-1.1,0.1-2.2,0.3-3.3,0.5c-1.1,0.2-2.2,0.4-3.3,0.5c-1.1,0.2-2.2,0.4-3.3,0.6c-1.1,0.2-2.2,0.5-3.2,0.7
				c-1.1,0.2-2.1,0.5-3.2,0.8c-1.1,0.3-2.1,0.6-3.2,0.9c-1.1,0.3-2.1,0.6-3.1,0.9c-1,0.3-2.1,0.7-3.1,1c-1,0.3-2.1,0.7-3.1,1.1
				c-1,0.4-2,0.8-3,1.2c-1,0.4-2,0.8-3,1.2c-1,0.4-2,0.9-3,1.3c-1,0.4-2,0.9-2.9,1.4c-1,0.5-1.9,0.9-2.9,1.4c-1,0.5-1.9,1-2.9,1.5
				c-0.9,0.5-1.9,1-2.8,1.6c-0.9,0.5-1.9,1.1-2.8,1.6c-0.9,0.6-1.8,1.1-2.7,1.7c-0.9,0.6-1.8,1.2-2.7,1.8c-0.9,0.6-1.8,1.2-2.6,1.8
				c-0.9,0.6-1.7,1.2-2.6,1.9c-0.9,0.6-1.7,1.3-2.5,1.9c-0.8,0.7-1.7,1.3-2.5,2c-0.8,0.7-1.6,1.4-2.4,2.1c-0.8,0.7-1.6,1.4-2.4,2.1
				c-0.8,0.7-1.6,1.4-2.3,2.2c-0.8,0.7-1.5,1.5-2.3,2.2c-1.2,1.2-1.2,3.2,0,4.4c0.6,0.6,1.4,0.9,2.2,0.9c0.8,0,1.6-0.3,2.2-0.9
				c0.7-0.7,1.4-1.4,2.2-2.1c0.7-0.7,1.5-1.4,2.2-2.1c0.8-0.7,1.5-1.4,2.3-2c0.8-0.7,1.5-1.3,2.3-2c0.8-0.6,1.6-1.3,2.4-1.9
				c0.8-0.6,1.6-1.2,2.4-1.9c0.8-0.6,1.6-1.2,2.5-1.8c0.8-0.6,1.7-1.2,2.5-1.7c0.8-0.6,1.7-1.1,2.6-1.7c0.9-0.6,1.7-1.1,2.6-1.6
				c0.9-0.5,1.8-1,2.6-1.6c0.9-0.5,1.8-1,2.7-1.5c0.9-0.5,1.8-1,2.7-1.4c0.9-0.5,1.8-0.9,2.8-1.4c0.9-0.4,1.9-0.9,2.8-1.3
				c0.9-0.4,1.9-0.8,2.8-1.2c0.9-0.4,1.9-0.8,2.9-1.2c1-0.4,1.9-0.7,2.9-1.1c1-0.4,1.9-0.7,2.9-1c1-0.3,2-0.7,3-1c1-0.3,2-0.6,3-0.9
				c1-0.3,2-0.6,3-0.8c1-0.3,2-0.5,3.1-0.7c1-0.2,2.1-0.5,3.1-0.7c1-0.2,2.1-0.4,3.1-0.6c1-0.2,2.1-0.4,3.1-0.5
				c1-0.2,2.1-0.3,3.2-0.4c1.1-0.1,2.1-0.3,3.2-0.4c1.1-0.1,2.1-0.2,3.2-0.3c1.1-0.1,2.2-0.1,3.2-0.2c1.7-0.1,3.1-1.6,3-3.3
				C132.7,14.3,131.3,12.9,129.6,13z"/>
			<path class="st15" d="M269.6,142.6c0-1.1-0.1-2.3-0.1-3.4c-0.1-1.1-0.1-2.3-0.2-3.4c-0.1-1.1-0.2-2.2-0.3-3.4
				c-0.1-1.1-0.2-2.2-0.4-3.3c-0.1-1.1-0.3-2.2-0.5-3.3c-0.2-1.1-0.4-2.2-0.5-3.3c-0.2-1.1-0.4-2.2-0.6-3.3
				c-0.2-1.1-0.5-2.2-0.7-3.2c-0.2-1.1-0.5-2.1-0.8-3.2c-0.3-1.1-0.6-2.1-0.9-3.2c-0.3-1.1-0.6-2.1-0.9-3.1c-0.3-1-0.7-2.1-1-3.1
				c-0.3-1-0.7-2.1-1.1-3.1c-0.4-1-0.8-2-1.2-3c-0.4-1-0.8-2-1.2-3c-0.4-1-0.9-2-1.3-3c-0.4-1-0.9-2-1.4-2.9c-0.5-1-0.9-1.9-1.4-2.9
				c-0.5-1-1-1.9-1.5-2.9c-0.5-0.9-1-1.9-1.6-2.8c-0.5-0.9-1.1-1.9-1.6-2.8c-0.6-0.9-1.1-1.8-1.7-2.7c-0.6-0.9-1.2-1.8-1.8-2.7
				c-0.6-0.9-1.2-1.8-1.8-2.6c-0.6-0.9-1.2-1.7-1.9-2.6c-0.6-0.9-1.3-1.7-1.9-2.5c-0.7-0.8-1.3-1.7-2-2.5c-0.7-0.8-1.4-1.6-2.1-2.4
				c-0.7-0.8-1.4-1.6-2.1-2.4c-0.7-0.8-1.4-1.6-2.2-2.3c-0.7-0.8-1.5-1.5-2.2-2.3c-0.8-0.8-1.5-1.5-2.3-2.2
				c-0.8-0.7-1.6-1.5-2.3-2.2s-1.6-1.4-2.4-2.1c-0.8-0.7-1.6-1.4-2.4-2.1c-0.8-0.7-1.7-1.3-2.5-2c-0.8-0.7-1.7-1.3-2.5-1.9
				c-0.9-0.6-1.7-1.3-2.6-1.9c-0.9-0.6-1.7-1.2-2.6-1.8c-0.9-0.6-1.8-1.2-2.7-1.8c-0.9-0.6-1.8-1.1-2.7-1.7
				c-0.9-0.6-1.8-1.1-2.8-1.6c-0.9-0.5-1.9-1.1-2.8-1.6c-0.9-0.5-1.9-1-2.8-1.5c-1-0.5-1.9-1-2.9-1.4c-1-0.5-1.9-0.9-2.9-1.4
				c-1-0.4-2-0.9-3-1.3c-1-0.4-2-0.8-3-1.2c-1-0.4-2-0.8-3-1.2c-1-0.4-2-0.7-3.1-1.1c-1-0.3-2.1-0.7-3.1-1c-1-0.3-2.1-0.6-3.1-0.9
				c-1.1-0.3-2.1-0.6-3.2-0.9c-1.1-0.3-2.1-0.5-3.2-0.8c-1.1-0.2-2.2-0.5-3.2-0.7c-1.1-0.2-2.2-0.4-3.3-0.6
				c-1.1-0.2-2.2-0.4-3.3-0.5c-1.1-0.2-2.2-0.3-3.3-0.5c-1.7-0.2-3.3,1-3.5,2.7c-0.2,1.7,1,3.3,2.7,3.5c1.1,0.1,2.1,0.3,3.2,0.4
				c1.1,0.2,2.1,0.3,3.1,0.5c1,0.2,2.1,0.4,3.1,0.6c1,0.2,2.1,0.4,3.1,0.7c1,0.2,2,0.5,3.1,0.7c1,0.3,2,0.5,3,0.8c1,0.3,2,0.6,3,0.9
				c1,0.3,2,0.6,3,1c1,0.3,2,0.7,2.9,1c1,0.4,1.9,0.7,2.9,1.1c1,0.4,1.9,0.8,2.9,1.2c0.9,0.4,1.9,0.8,2.8,1.2
				c0.9,0.4,1.9,0.9,2.8,1.3c0.9,0.4,1.8,0.9,2.8,1.4c0.9,0.5,1.8,0.9,2.7,1.4c0.9,0.5,1.8,1,2.7,1.5c0.9,0.5,1.8,1,2.6,1.6
				c0.9,0.5,1.7,1.1,2.6,1.6c0.9,0.6,1.7,1.1,2.6,1.7c0.8,0.6,1.7,1.1,2.5,1.7c0.8,0.6,1.7,1.2,2.5,1.8c0.8,0.6,1.6,1.2,2.4,1.9
				c0.8,0.6,1.6,1.3,2.4,1.9c0.8,0.6,1.6,1.3,2.3,2c0.8,0.7,1.5,1.3,2.3,2c0.8,0.7,1.5,1.4,2.2,2.1c0.7,0.7,1.5,1.4,2.2,2.1
				c0.7,0.7,1.4,1.4,2.1,2.2c0.7,0.7,1.4,1.5,2.1,2.2c0.7,0.8,1.4,1.5,2,2.3c0.7,0.8,1.3,1.5,2,2.3c0.6,0.8,1.3,1.6,1.9,2.4
				c0.6,0.8,1.2,1.6,1.9,2.4c0.6,0.8,1.2,1.6,1.8,2.5c0.6,0.8,1.2,1.7,1.7,2.5c0.6,0.8,1.1,1.7,1.7,2.6c0.6,0.9,1.1,1.7,1.6,2.6
				c0.5,0.9,1,1.8,1.6,2.6c0.5,0.9,1,1.8,1.5,2.7c0.5,0.9,1,1.8,1.4,2.7c0.5,0.9,0.9,1.8,1.4,2.8c0.4,0.9,0.9,1.9,1.3,2.8
				c0.4,0.9,0.8,1.9,1.2,2.8c0.4,1,0.8,1.9,1.2,2.9c0.4,1,0.7,1.9,1.1,2.9c0.4,1,0.7,1.9,1,2.9c0.3,1,0.7,2,1,3c0.3,1,0.6,2,0.9,3
				c0.3,1,0.6,2,0.8,3c0.3,1,0.5,2,0.7,3.1c0.2,1,0.5,2.1,0.7,3.1c0.2,1,0.4,2.1,0.6,3.1c0.2,1,0.4,2.1,0.5,3.1
				c0.2,1.1,0.3,2.1,0.4,3.2c0.1,1.1,0.3,2.1,0.4,3.2c0.1,1.1,0.2,2.1,0.3,3.2c0.1,1.1,0.1,2.2,0.2,3.2c0.1,1.1,0.1,2.2,0.1,3.3
				c0,1.1,0,2.2,0,3.3c0,0.3,0.1,0.5,0.2,0.8v55.5c0,1.7,1.4,3.1,3.1,3.1s3.1-1.4,3.1-3.1v-56.2c0-0.3-0.1-0.5-0.2-0.8
				C269.6,144.4,269.6,143.5,269.6,142.6z"/>
			<path class="st15" d="M292.3,142c0-1.3-0.1-2.7-0.2-4c-0.1-1.3-0.2-2.7-0.3-4c-0.1-1.3-0.2-2.6-0.4-3.9c-0.1-1.3-0.3-2.6-0.4-3.9
				c-0.2-1.3-0.3-2.6-0.5-3.9c-0.2-1.3-0.4-2.6-0.6-3.9c-0.2-1.3-0.5-2.6-0.7-3.8c-0.3-1.3-0.5-2.5-0.8-3.8
				c-0.3-1.3-0.6-2.5-0.9-3.8c-0.3-1.2-0.7-2.5-1-3.7c-0.4-1.2-0.7-2.5-1.1-3.7c-0.4-1.2-0.8-2.4-1.2-3.6c-0.4-1.2-0.8-2.4-1.3-3.6
				c-0.4-1.2-0.9-2.4-1.4-3.6c-0.5-1.2-0.9-2.4-1.4-3.5c-0.5-1.2-1-2.3-1.5-3.5c-0.5-1.2-1.1-2.3-1.6-3.4c-0.5-1.1-1.1-2.3-1.7-3.4
				c-0.6-1.1-1.2-2.2-1.8-3.3c-0.6-1.1-1.2-2.2-1.8-3.3c-0.6-1.1-1.3-2.2-1.9-3.2c-0.7-1.1-1.3-2.1-2-3.2c-0.7-1.1-1.4-2.1-2.1-3.1
				c-0.7-1-1.4-2.1-2.1-3.1c-0.7-1-1.5-2-2.2-3c-0.7-1-1.5-2-2.3-3c-0.8-1-1.6-2-2.4-2.9c-0.8-1-1.6-1.9-2.4-2.9
				c-0.8-0.9-1.6-1.9-2.5-2.8c-0.8-0.9-1.7-1.8-2.5-2.7c-0.9-0.9-1.7-1.8-2.6-2.7c-0.9-0.9-1.8-1.8-2.7-2.6
				c-0.9-0.9-1.8-1.7-2.7-2.5c-0.9-0.8-1.9-1.7-2.8-2.5c-0.9-0.8-1.9-1.6-2.9-2.4c-1-0.8-1.9-1.6-2.9-2.3c-1-0.8-2-1.5-3-2.3
				c-1-0.7-2-1.5-3-2.2c-1-0.7-2-1.4-3.1-2.1c-1-0.7-2.1-1.4-3.1-2.1c-1.1-0.7-2.1-1.3-3.2-2c-1.1-0.7-2.2-1.3-3.2-1.9
				c-1.1-0.6-2.2-1.2-3.3-1.8c-1.1-0.6-2.2-1.2-3.3-1.8c-1.1-0.6-2.3-1.1-3.4-1.7c-1.1-0.5-2.3-1.1-3.4-1.6c-1.2-0.5-2.3-1-3.5-1.5
				c-1.2-0.5-2.3-1-3.5-1.4c-1.2-0.5-2.4-0.9-3.6-1.4c-1.2-0.4-2.4-0.9-3.6-1.3c-1.2-0.4-2.4-0.8-3.6-1.2c-1.2-0.4-2.4-0.7-3.7-1.1
				c-1.2-0.4-2.5-0.7-3.7-1c-1.2-0.3-2.5-0.6-3.8-0.9c-1.3-0.3-2.5-0.6-3.8-0.8c-1.3-0.3-2.5-0.5-3.8-0.7c-1.3-0.2-2.6-0.4-3.9-0.6
				c-1.3-0.2-2.6-0.4-3.9-0.5c-1.7-0.2-3.3,1-3.5,2.7c-0.2,1.7,1,3.3,2.7,3.5c1.2,0.2,2.5,0.3,3.7,0.5c1.2,0.2,2.5,0.4,3.7,0.6
				c1.2,0.2,2.5,0.5,3.7,0.7c1.2,0.2,2.4,0.5,3.6,0.8c1.2,0.3,2.4,0.6,3.6,0.9c1.2,0.3,2.4,0.6,3.6,1c1.2,0.3,2.4,0.7,3.5,1.1
				c1.2,0.4,2.3,0.7,3.5,1.1c1.2,0.4,2.3,0.8,3.5,1.2c1.1,0.4,2.3,0.9,3.4,1.3c1.1,0.4,2.3,0.9,3.4,1.4c1.1,0.5,2.2,1,3.3,1.5
				c1.1,0.5,2.2,1,3.3,1.5c1.1,0.5,2.2,1.1,3.2,1.6c1.1,0.5,2.1,1.1,3.2,1.7c1.1,0.6,2.1,1.2,3.2,1.8c1,0.6,2.1,1.2,3.1,1.8
				c1,0.6,2,1.3,3.1,1.9c1,0.6,2,1.3,3,2c1,0.7,2,1.4,3,2.1c1,0.7,1.9,1.4,2.9,2.1c1,0.7,1.9,1.4,2.9,2.2c0.9,0.7,1.9,1.5,2.8,2.3
				c0.9,0.8,1.8,1.5,2.7,2.3c0.9,0.8,1.8,1.6,2.7,2.4c0.9,0.8,1.8,1.6,2.6,2.4c0.9,0.8,1.7,1.7,2.6,2.5s1.7,1.7,2.5,2.6
				c0.8,0.9,1.6,1.7,2.5,2.6c0.8,0.9,1.6,1.8,2.4,2.7c0.8,0.9,1.6,1.8,2.3,2.7c0.8,0.9,1.5,1.9,2.3,2.8c0.7,0.9,1.5,1.9,2.2,2.9
				c0.7,1,1.4,1.9,2.1,2.9c0.7,1,1.4,2,2.1,3c0.7,1,1.3,2,2,3c0.6,1,1.3,2,1.9,3.1c0.6,1,1.2,2.1,1.8,3.1c0.6,1,1.2,2.1,1.8,3.2
				c0.6,1.1,1.1,2.1,1.7,3.2c0.6,1.1,1.1,2.2,1.6,3.2c0.5,1.1,1,2.2,1.5,3.3c0.5,1.1,1,2.2,1.5,3.3c0.5,1.1,0.9,2.2,1.4,3.4
				c0.4,1.1,0.9,2.3,1.3,3.4c0.4,1.1,0.8,2.3,1.2,3.5c0.4,1.2,0.8,2.3,1.1,3.5c0.4,1.2,0.7,2.3,1.1,3.5c0.3,1.2,0.7,2.4,1,3.6
				c0.3,1.2,0.6,2.4,0.9,3.6c0.3,1.2,0.5,2.4,0.8,3.6c0.2,1.2,0.5,2.4,0.7,3.7c0.2,1.2,0.4,2.5,0.6,3.7c0.2,1.2,0.4,2.5,0.5,3.7
				c0.2,1.2,0.3,2.5,0.4,3.8c0.1,1.3,0.2,2.5,0.3,3.8c0.1,1.3,0.2,2.5,0.2,3.8c0.1,1.3,0.1,2.6,0.1,3.8c0,1.3,0,2.6,0,3.9
				c0,0.1,0,0.1,0,0.2v280.9c0,1.7,1.4,3.1,3.1,3.1c1.7,0,3.1-1.4,3.1-3.1V146.1c0-0.1,0-0.2,0-0.2
				C292.3,144.5,292.3,143.3,292.3,142z"/>
			<path class="st15" d="M173.8,291c-1.2,0.3-2.4,0.6-3.6,0.9c-1.2,0.3-2.4,0.5-3.6,0.8c-1.2,0.3-2.4,0.5-3.7,0.7
				c-1.2,0.2-2.5,0.4-3.7,0.6c-1.2,0.2-2.5,0.4-3.7,0.5c-1.2,0.2-2.5,0.3-3.8,0.4c-1.3,0.1-2.5,0.2-3.8,0.3
				c-1.3,0.1-2.5,0.2-3.8,0.2c-1.3,0.1-2.6,0.1-3.8,0.1c-2.6,0.1-5.2,0.1-7.7,0c-1.3,0-2.6-0.1-3.8-0.1c-1.3-0.1-2.5-0.1-3.8-0.2
				c-1.3-0.1-2.5-0.2-3.8-0.3c-1.3-0.1-2.5-0.3-3.8-0.4c-1.2-0.2-2.5-0.3-3.7-0.5c-1.2-0.2-2.5-0.4-3.7-0.6
				c-1.2-0.2-2.5-0.5-3.7-0.7c-1.2-0.2-2.4-0.5-3.6-0.8c-1.2-0.3-2.4-0.6-3.6-0.9c-1.2-0.3-2.4-0.6-3.6-1c-1.2-0.3-2.4-0.7-3.5-1.1
				c-1.2-0.4-2.3-0.7-3.5-1.1c-1.2-0.4-2.3-0.8-3.5-1.2c-1.1-0.4-2.3-0.9-3.4-1.3c-1.1-0.4-2.3-0.9-3.4-1.4c-1.1-0.5-2.2-1-3.3-1.5
				c-1.6-0.7-3.4,0-4.1,1.6c-0.7,1.6,0,3.4,1.6,4.1c1.2,0.5,2.3,1,3.5,1.5c1.2,0.5,2.3,1,3.5,1.4c1.2,0.5,2.4,0.9,3.6,1.4
				c1.2,0.4,2.4,0.9,3.6,1.3c1.2,0.4,2.4,0.8,3.6,1.2c1.2,0.4,2.5,0.7,3.7,1.1c1.2,0.4,2.5,0.7,3.7,1c1.2,0.3,2.5,0.6,3.8,0.9
				c1.3,0.3,2.5,0.6,3.8,0.8c1.3,0.3,2.5,0.5,3.8,0.7c1.3,0.2,2.6,0.4,3.9,0.6c1.3,0.2,2.6,0.4,3.9,0.5c1.3,0.2,2.6,0.3,3.9,0.4
				c1.3,0.1,2.6,0.3,3.9,0.3c1.3,0.1,2.6,0.2,4,0.3c1.3,0.1,2.7,0.1,4,0.2c1.3,0,2.7,0,4,0c1.3,0,2.7,0,4-0.1c1.3,0,2.7-0.1,4-0.2
				c1.3-0.1,2.7-0.2,4-0.3c1.3-0.1,2.6-0.2,3.9-0.4c1.3-0.1,2.6-0.3,3.9-0.4c1.3-0.2,2.6-0.3,3.9-0.5c1.3-0.2,2.6-0.4,3.9-0.6
				c1.3-0.2,2.6-0.5,3.8-0.7c1.3-0.3,2.5-0.5,3.8-0.8c1.3-0.3,2.5-0.6,3.8-0.9c1.7-0.4,2.7-2.1,2.3-3.8
				C177.2,291.6,175.5,290.6,173.8,291z"/>
			<path class="st15" d="M83.3-24.6c-1.4,0.4-2.8,0.9-4.2,1.4c-1.4,0.5-2.8,1-4.1,1.5c-1.4,0.5-2.7,1-4.1,1.6
				c-1.4,0.5-2.7,1.1-4,1.6c-1.3,0.6-2.7,1.1-4,1.7c-1.3,0.6-2.6,1.2-3.9,1.8c-1.3,0.6-2.6,1.3-3.9,1.9c-1.3,0.7-2.6,1.3-3.8,2
				c-1.3,0.7-2.5,1.4-3.8,2.1c-1.2,0.7-2.5,1.4-3.7,2.2c-1.2,0.7-2.4,1.5-3.7,2.3c-1.2,0.8-2.4,1.6-3.6,2.4
				c-1.2,0.8-2.4,1.6-3.5,2.4c-1.2,0.8-2.3,1.7-3.5,2.5c-1.1,0.9-2.3,1.7-3.4,2.6c-1.1,0.9-2.2,1.8-3.3,2.7
				c-1.1,0.9-2.2,1.8-3.3,2.8c-1.1,0.9-2.1,1.9-3.2,2.8c-1.1,1-2.1,1.9-3.1,2.9c-1,1-2.1,2-3.1,3c-1,1-2,2-3,3.1c-1,1-2,2.1-2.9,3.1
				c-1,1.1-1.9,2.1-2.8,3.2c-0.9,1.1-1.9,2.2-2.8,3.3c-0.9,1.1-1.8,2.2-2.7,3.3C-5,36.9-5.9,38-6.8,39.2c-0.9,1.1-1.7,2.3-2.5,3.5
				c-0.8,1.2-1.6,2.3-2.4,3.5c-0.8,1.2-1.6,2.4-2.4,3.6c-0.8,1.2-1.5,2.4-2.3,3.7c-0.7,1.2-1.5,2.5-2.2,3.7
				c-0.7,1.2-1.4,2.5-2.1,3.8c-0.7,1.3-1.4,2.5-2,3.8c-0.7,1.3-1.3,2.6-1.9,3.9c-0.6,1.3-1.2,2.6-1.8,3.9c-0.6,1.3-1.2,2.6-1.7,4
				c-0.6,1.3-1.1,2.7-1.6,4c-0.5,1.4-1.1,2.7-1.6,4.1c-0.5,1.4-1,2.7-1.5,4.1c-0.6,1.6,0.3,3.4,2,4c0.3,0.1,0.7,0.2,1,0.2
				c1.3,0,2.5-0.8,3-2.1c0.5-1.3,0.9-2.7,1.4-4c0.5-1.3,1-2.6,1.5-3.9c0.5-1.3,1-2.6,1.6-3.9c0.5-1.3,1.1-2.6,1.7-3.8
				c0.6-1.3,1.2-2.5,1.8-3.8c0.6-1.3,1.2-2.5,1.9-3.7c0.6-1.2,1.3-2.5,1.9-3.7c0.7-1.2,1.3-2.4,2-3.6c0.7-1.2,1.4-2.4,2.1-3.6
				c0.7-1.2,1.5-2.4,2.2-3.5s1.5-2.3,2.3-3.5c0.8-1.1,1.6-2.3,2.4-3.4c0.8-1.1,1.6-2.2,2.4-3.4c0.8-1.1,1.7-2.2,2.5-3.3
				c0.9-1.1,1.7-2.2,2.6-3.2c0.9-1.1,1.8-2.1,2.7-3.2c0.9-1,1.8-2.1,2.7-3.1c0.9-1,1.9-2,2.8-3c1-1,1.9-2,2.9-3c1-1,2-1.9,3-2.9
				c1-1,2-1.9,3-2.8c1-0.9,2.1-1.8,3.1-2.7c1-0.9,2.1-1.8,3.2-2.7c1.1-0.9,2.1-1.7,3.2-2.6c1.1-0.9,2.2-1.7,3.3-2.5
				c1.1-0.8,2.2-1.6,3.3-2.4c1.1-0.8,2.3-1.6,3.4-2.4c1.1-0.8,2.3-1.5,3.5-2.3c1.2-0.7,2.3-1.5,3.5-2.2c1.2-0.7,2.4-1.4,3.6-2.1
				c1.2-0.7,2.4-1.4,3.6-2c1.2-0.7,2.5-1.3,3.7-1.9c1.2-0.6,2.5-1.3,3.7-1.9c1.3-0.6,2.5-1.2,3.8-1.8c1.3-0.6,2.6-1.1,3.8-1.7
				c1.3-0.5,2.6-1.1,3.9-1.6c1.3-0.5,2.6-1,3.9-1.5c1.3-0.5,2.6-1,4-1.4c1.3-0.5,2.7-0.9,4-1.3c1.6-0.5,2.6-2.3,2.1-3.9
				C86.7-24.2,84.9-25.1,83.3-24.6z"/>
			<path class="st15" d="M315,141.4c0-1.5-0.1-3.1-0.2-4.6c-0.1-1.5-0.2-3-0.3-4.6c-0.1-1.5-0.2-3-0.4-4.5c-0.2-1.5-0.3-3-0.5-4.5
				c-0.2-1.5-0.4-3-0.6-4.5c-0.2-1.5-0.5-3-0.7-4.4c-0.3-1.5-0.5-2.9-0.8-4.4c-0.3-1.5-0.6-2.9-0.9-4.3c-0.3-1.4-0.7-2.9-1-4.3
				c-0.4-1.4-0.8-2.8-1.2-4.3c-0.4-1.4-0.8-2.8-1.3-4.2c-0.4-1.4-0.9-2.8-1.4-4.2c-0.5-1.4-1-2.8-1.5-4.1c-0.5-1.4-1-2.7-1.6-4.1
				c-0.5-1.4-1.1-2.7-1.6-4c-0.6-1.3-1.1-2.7-1.7-4c-0.6-1.3-1.2-2.6-1.8-3.9c-0.6-1.3-1.3-2.6-1.9-3.9c-0.7-1.3-1.3-2.6-2-3.8
				c-0.7-1.3-1.4-2.5-2.1-3.8c-0.7-1.2-1.4-2.5-2.2-3.7c-0.7-1.2-1.5-2.4-2.3-3.7c-0.8-1.2-1.6-2.4-2.4-3.6
				c-0.8-1.2-1.6-2.4-2.4-3.5c-0.8-1.2-1.7-2.3-2.5-3.5c-0.9-1.1-1.7-2.3-2.6-3.4c-0.9-1.1-1.8-2.2-2.7-3.3
				c-0.9-1.1-1.8-2.2-2.8-3.3c-0.9-1.1-1.9-2.1-2.8-3.2c-1-1.1-1.9-2.1-2.9-3.1c-1-1-2-2.1-3-3.1c-1-1-2-2-3.1-3c-1-1-2.1-2-3.1-2.9
				c-1.1-1-2.1-1.9-3.2-2.8c-1.1-0.9-2.2-1.9-3.3-2.8c-1.1-0.9-2.2-1.8-3.3-2.7c-1.1-0.9-2.3-1.8-3.4-2.6c-1.1-0.9-2.3-1.7-3.5-2.5
				c-1.2-0.8-2.3-1.6-3.5-2.5c-1.4-1-3.4-0.6-4.3,0.8c-1,1.4-0.6,3.4,0.8,4.3c1.1,0.8,2.3,1.6,3.4,2.4c1.1,0.8,2.2,1.6,3.3,2.4
				c1.1,0.8,2.2,1.7,3.3,2.5c1.1,0.9,2.2,1.7,3.2,2.6c1.1,0.9,2.1,1.8,3.2,2.7c1,0.9,2.1,1.8,3.1,2.7c1,0.9,2,1.9,3,2.8
				c1,1,2,1.9,3,2.9c1,1,1.9,2,2.9,3c1,1,1.9,2,2.8,3c0.9,1,1.8,2.1,2.7,3.1c0.9,1,1.8,2.1,2.7,3.2c0.9,1.1,1.7,2.1,2.6,3.2
				c0.9,1.1,1.7,2.2,2.5,3.3c0.8,1.1,1.6,2.2,2.4,3.4c0.8,1.1,1.6,2.3,2.4,3.4c0.8,1.1,1.5,2.3,2.3,3.5c0.7,1.2,1.5,2.3,2.2,3.5
				c0.7,1.2,1.4,2.4,2.1,3.6c0.7,1.2,1.4,2.4,2,3.6c0.7,1.2,1.3,2.5,1.9,3.7c0.6,1.2,1.3,2.5,1.9,3.7c0.6,1.3,1.2,2.5,1.8,3.8
				c0.6,1.3,1.1,2.6,1.7,3.8c0.5,1.3,1.1,2.6,1.6,3.9c0.5,1.3,1,2.6,1.5,3.9c0.5,1.3,1,2.6,1.4,4c0.5,1.3,0.9,2.7,1.3,4
				c0.4,1.3,0.8,2.7,1.2,4.1c0.4,1.4,0.8,2.7,1.1,4.1c0.4,1.4,0.7,2.8,1,4.2c0.3,1.4,0.6,2.8,0.9,4.2c0.3,1.4,0.6,2.8,0.8,4.2
				c0.3,1.4,0.5,2.8,0.7,4.3c0.2,1.4,0.4,2.9,0.6,4.3c0.2,1.4,0.3,2.9,0.5,4.3c0.1,1.4,0.3,2.9,0.4,4.4c0.1,1.5,0.2,2.9,0.3,4.4
				c0.1,1.5,0.1,2.9,0.2,4.4c0,1.5,0.1,3,0.1,4.5c0,0.3,0.1,0.5,0.2,0.8v111.7c0,1.7,1.4,3.1,3.1,3.1s3.1-1.4,3.1-3.1V146.1
				c0-0.3-0.1-0.6-0.2-0.8C315.1,144,315,142.7,315,141.4z"/>
			<path class="st15" d="M-32.3,41.8c0.5,0.3,1.1,0.5,1.7,0.5c1,0,2-0.5,2.6-1.4c0.8-1.3,1.7-2.6,2.6-3.9c0.9-1.3,1.8-2.6,2.7-3.9
				c0.9-1.3,1.8-2.5,2.8-3.8c0.9-1.3,1.9-2.5,2.9-3.7c1-1.2,1.9-2.4,2.9-3.6c1-1.2,2-2.4,3-3.6c1-1.2,2.1-2.3,3.1-3.5
				c1.1-1.2,2.1-2.3,3.2-3.4c1.1-1.1,2.2-2.2,3.3-3.4C-0.5,7,0.6,5.9,1.8,4.8C2.9,3.7,4,2.7,5.2,1.6c1.2-1,2.3-2.1,3.5-3.1
				c1.2-1,2.4-2,3.6-3c1.2-1,2.4-2,3.7-2.9c1.2-1,2.5-1.9,3.7-2.9c1.3-0.9,2.5-1.9,3.8-2.8c1.4-1,1.7-3,0.7-4.4
				c-1-1.4-3-1.7-4.4-0.7c-1.3,0.9-2.6,1.9-3.9,2.9c-1.3,1-2.6,1.9-3.8,2.9c-1.3,1-2.5,2-3.8,3c-1.2,1-2.5,2.1-3.7,3.1
				C3.4-5.2,2.2-4.1,1-3c-1.2,1.1-2.4,2.2-3.5,3.3C-3.7,1.4-4.9,2.5-6,3.6c-1.1,1.1-2.3,2.3-3.4,3.5c-1.1,1.2-2.2,2.3-3.3,3.5
				c-1.1,1.2-2.2,2.4-3.2,3.6c-1.1,1.2-2.1,2.4-3.1,3.7c-1,1.2-2,2.5-3,3.8s-2,2.5-2.9,3.8c-1,1.3-1.9,2.6-2.9,3.9
				c-0.9,1.3-1.9,2.6-2.8,4c-0.9,1.3-1.8,2.7-2.7,4.1C-34.2,39-33.8,40.9-32.3,41.8z"/>
			<path class="st15" d="M337.7,140.9c0-1.7-0.1-3.4-0.2-5.2c-0.1-1.7-0.2-3.4-0.3-5.1c-0.1-1.7-0.3-3.4-0.5-5.1
				c-0.2-1.7-0.4-3.4-0.6-5.1c-0.2-1.7-0.4-3.4-0.7-5c-0.3-1.7-0.5-3.3-0.8-5c-0.3-1.7-0.6-3.3-0.9-4.9c-0.3-1.6-0.7-3.3-1.1-4.9
				c-0.4-1.6-0.8-3.2-1.2-4.9c-0.4-1.6-0.8-3.2-1.3-4.8c-0.5-1.6-0.9-3.2-1.4-4.8c-0.5-1.6-1-3.1-1.5-4.7c-0.5-1.6-1.1-3.1-1.6-4.7
				c-0.6-1.5-1.1-3.1-1.7-4.6c-0.6-1.5-1.2-3-1.9-4.5c-0.6-1.5-1.3-3-2-4.5c-0.7-1.5-1.4-3-2.1-4.4c-0.7-1.5-1.4-2.9-2.2-4.4
				c-0.7-1.4-1.5-2.9-2.3-4.3c-0.8-1.4-1.6-2.8-2.4-4.2c-0.8-1.4-1.6-2.8-2.5-4.2c-0.8-1.4-1.7-2.8-2.6-4.1
				c-0.9-1.4-1.8-2.7-2.7-4.1c-0.9-1.3-1.8-2.7-2.8-4c-0.9-1.3-1.9-2.6-2.9-3.9c-1-1.3-1.9-2.6-2.9-3.8c-1-1.3-2-2.5-3-3.8
				c-1-1.2-2.1-2.5-3.1-3.7c-1.1-1.2-2.1-2.4-3.2-3.6c-1.1-1.2-2.2-2.4-3.3-3.5c-1.1-1.2-2.2-2.3-3.4-3.5c-1.1-1.1-2.3-2.3-3.5-3.4
				c-1.2-1.1-2.3-2.2-3.5-3.3c-1.2-1.1-2.4-2.2-3.6-3.2c-1.2-1.1-2.4-2.1-3.7-3.1c-1.2-1-2.5-2-3.8-3c-1.3-1-2.5-2-3.8-2.9
				c-1.3-1-2.6-1.9-3.9-2.9c-1.3-0.9-2.6-1.9-4-2.8c-1.3-0.9-2.7-1.8-4.1-2.7c-1.4-0.9-2.7-1.7-4.1-2.6c-1.4-0.8-2.8-1.7-4.2-2.5
				c-1.4-0.8-2.8-1.6-4.2-2.4c-1.4-0.8-2.9-1.5-4.3-2.3c-1.5-0.8-3.4-0.2-4.2,1.4c-0.8,1.5-0.2,3.4,1.4,4.2c1.4,0.7,2.8,1.5,4.2,2.2
				c1.4,0.8,2.8,1.5,4.1,2.3c1.4,0.8,2.7,1.6,4.1,2.4c1.3,0.8,2.7,1.6,4,2.5c1.3,0.8,2.6,1.7,3.9,2.6c1.3,0.9,2.6,1.8,3.9,2.7
				c1.3,0.9,2.5,1.8,3.8,2.8c1.3,0.9,2.5,1.9,3.7,2.9c1.2,1,2.4,1.9,3.7,2.9c1.2,1,2.4,2,3.6,3c1.2,1,2.3,2.1,3.5,3.1
				c1.2,1.1,2.3,2.1,3.4,3.2c1.1,1.1,2.2,2.2,3.4,3.3c1.1,1.1,2.2,2.2,3.3,3.4c1.1,1.1,2.1,2.3,3.2,3.4c1,1.2,2.1,2.3,3.1,3.5
				c1,1.2,2,2.4,3,3.6c1,1.2,2,2.4,2.9,3.7c1,1.2,1.9,2.5,2.9,3.7c0.9,1.3,1.9,2.5,2.8,3.8c0.9,1.3,1.8,2.6,2.7,3.9
				c0.9,1.3,1.7,2.6,2.6,3.9c0.8,1.3,1.7,2.6,2.5,4c0.8,1.3,1.6,2.7,2.4,4.1c0.8,1.4,1.6,2.7,2.3,4.1c0.8,1.4,1.5,2.8,2.2,4.2
				c0.7,1.4,1.4,2.8,2.1,4.2c0.7,1.4,1.4,2.9,2,4.3c0.7,1.4,1.3,2.9,1.9,4.3c0.6,1.5,1.2,2.9,1.8,4.4c0.6,1.5,1.1,3,1.7,4.5
				c0.5,1.5,1.1,3,1.6,4.5c0.5,1.5,1,3,1.5,4.6c0.5,1.5,0.9,3.1,1.4,4.6c0.4,1.5,0.9,3.1,1.3,4.7c0.4,1.6,0.8,3.1,1.1,4.7
				c0.4,1.6,0.7,3.2,1,4.7c0.3,1.6,0.6,3.2,0.9,4.8c0.3,1.6,0.6,3.2,0.8,4.8c0.2,1.6,0.5,3.2,0.7,4.9c0.2,1.6,0.4,3.3,0.6,4.9
				c0.2,1.6,0.3,3.3,0.4,4.9c0.1,1.7,0.2,3.3,0.3,5c0.1,1.7,0.1,3.3,0.2,5c0,1.6,0.1,3.2,0.1,4.8c0,0.1-0.1,0.2-0.1,0.3v33.7
				c0,1.7,1.4,3.1,3.1,3.1s3.1-1.4,3.1-3.1v-33.5c0-0.1,0.1-0.2,0.1-0.3C337.8,144.3,337.8,142.6,337.7,140.9z"/>
			<path class="st15" d="M338.4,48.9c-0.8-1.6-1.6-3.3-2.4-4.9c-0.8-1.6-1.7-3.2-2.5-4.8c-0.9-1.6-1.7-3.2-2.6-4.7
				c-0.9-1.6-1.8-3.1-2.8-4.7c-0.9-1.5-1.9-3.1-2.9-4.6c-1-1.5-2-3-3-4.5c-1-1.5-2-3-3.1-4.4c-1-1.5-2.1-2.9-3.2-4.4
				c-1.1-1.4-2.2-2.9-3.3-4.3c-1.1-1.4-2.2-2.8-3.4-4.2c-1.1-1.4-2.3-2.8-3.5-4.1c-1.2-1.4-2.4-2.7-3.6-4c-1.2-1.3-2.4-2.6-3.7-3.9
				c-1.2-1.3-2.5-2.6-3.8-3.8c-1.3-1.3-2.6-2.5-3.8-3.8c-1.3-1.2-2.6-2.5-3.9-3.7c-1.3-1.2-2.7-2.4-4-3.6c-1.4-1.2-2.7-2.3-4.1-3.5
				c-1.4-1.1-2.8-2.3-4.2-3.4c-1.4-1.1-2.8-2.2-4.3-3.3c-1.4-1.1-2.9-2.1-4.4-3.2c-1.5-1-2.9-2.1-4.4-3.1c-1.5-1-3-2-4.5-3
				c-1.5-1-3-1.9-4.6-2.9c-1.5-0.9-3.1-1.9-4.7-2.8c-1.6-0.9-3.1-1.8-4.7-2.6c-1.6-0.9-3.2-1.7-4.8-2.5c-1.6-0.8-3.2-1.6-4.9-2.4
				c-1.6-0.8-3.3-1.6-4.9-2.3c-1.7-0.7-3.3-1.5-5-2.2c-1.7-0.7-3.4-1.4-5.1-2.1c-1.7-0.7-3.4-1.3-5.1-1.9c-1.7-0.6-3.4-1.2-5.2-1.8
				c-1.7-0.6-3.5-1.2-5.2-1.7c-1.8-0.5-3.5-1.1-5.3-1.6c-1.8-0.5-3.6-1-5.3-1.4c-1.8-0.5-3.6-0.9-5.4-1.3c-1.8-0.4-3.6-0.8-5.4-1.2
				c-1.8-0.4-3.7-0.7-5.5-1.1c-1.8-0.3-3.7-0.6-5.5-0.9c-1.9-0.3-3.7-0.5-5.6-0.8c-1.9-0.2-3.7-0.5-5.6-0.6
				c-1.9-0.2-3.8-0.4-5.7-0.5c-1.9-0.1-3.8-0.3-5.7-0.4c-1.9-0.1-3.8-0.2-5.7-0.2c-3.8-0.1-7.7-0.1-11.6,0c-1.9,0-3.8,0.1-5.7,0.2
				c-1.9,0.1-3.8,0.2-5.7,0.4c-1.9,0.1-3.8,0.3-5.7,0.5c-1.9,0.2-3.8,0.4-5.6,0.6c-1.9,0.2-3.7,0.5-5.6,0.8
				c-1.9,0.3-3.7,0.6-5.5,0.9c-1.8,0.3-3.7,0.7-5.5,1.1c-1.8,0.4-3.6,0.8-5.4,1.2c-1.8,0.4-3.6,0.9-5.4,1.3
				c-1.8,0.5-3.6,0.9-5.3,1.4c-1.7,0.5-2.6,2.2-2.2,3.9c0.5,1.7,2.2,2.6,3.9,2.2c1.7-0.5,3.5-1,5.2-1.4c1.7-0.4,3.5-0.9,5.2-1.3
				c1.8-0.4,3.5-0.8,5.3-1.2c1.8-0.4,3.6-0.7,5.3-1c1.8-0.3,3.6-0.6,5.4-0.9c1.8-0.3,3.6-0.5,5.4-0.8c1.8-0.2,3.6-0.4,5.5-0.6
				c1.8-0.2,3.7-0.3,5.5-0.5c1.8-0.1,3.7-0.3,5.6-0.4c1.9-0.1,3.7-0.2,5.6-0.2c3.7-0.1,7.5-0.1,11.2,0c1.9,0,3.7,0.1,5.6,0.2
				c1.9,0.1,3.7,0.2,5.6,0.4c1.8,0.1,3.7,0.3,5.5,0.5c1.8,0.2,3.7,0.4,5.5,0.6c1.8,0.2,3.6,0.5,5.4,0.8c1.8,0.3,3.6,0.6,5.4,0.9
				c1.8,0.3,3.6,0.7,5.3,1c1.8,0.4,3.5,0.7,5.3,1.2c1.8,0.4,3.5,0.8,5.2,1.3c1.7,0.4,3.5,0.9,5.2,1.4c1.7,0.5,3.4,1,5.1,1.5
				c1.7,0.5,3.4,1.1,5.1,1.7c1.7,0.6,3.4,1.2,5,1.8c1.7,0.6,3.3,1.2,5,1.9c1.6,0.7,3.3,1.3,4.9,2c1.6,0.7,3.2,1.4,4.9,2.1
				c1.6,0.7,3.2,1.5,4.8,2.2c1.6,0.8,3.2,1.5,4.7,2.3c1.6,0.8,3.1,1.6,4.7,2.5c1.5,0.8,3.1,1.7,4.6,2.6c1.5,0.9,3,1.8,4.5,2.7
				c1.5,0.9,3,1.8,4.5,2.8c1.5,0.9,2.9,1.9,4.4,2.9c1.4,1,2.9,2,4.3,3c1.4,1,2.8,2,4.2,3.1c1.4,1,2.8,2.1,4.2,3.2
				c1.4,1.1,2.7,2.2,4.1,3.3c1.3,1.1,2.7,2.2,4,3.4c1.3,1.1,2.6,2.3,3.9,3.5c1.3,1.2,2.6,2.4,3.8,3.6c1.3,1.2,2.5,2.4,3.7,3.7
				c1.2,1.2,2.5,2.5,3.7,3.7c1.2,1.3,2.4,2.5,3.6,3.8c1.2,1.3,2.3,2.6,3.5,3.9c1.1,1.3,2.3,2.6,3.4,4c1.1,1.3,2.2,2.7,3.3,4.1
				c1.1,1.4,2.1,2.8,3.2,4.2c1,1.4,2.1,2.8,3.1,4.2c1,1.4,2,2.9,3,4.3c1,1.4,1.9,2.9,2.9,4.4c0.9,1.5,1.9,3,2.8,4.5
				c0.9,1.5,1.8,3,2.7,4.5c0.9,1.5,1.7,3.1,2.6,4.6c0.8,1.5,1.7,3.1,2.5,4.7c0.8,1.6,1.6,3.1,2.4,4.7c0.8,1.6,1.5,3.2,2.2,4.8
				c0.5,1.2,1.7,1.8,2.9,1.8c0.4,0,0.9-0.1,1.3-0.3c1.6-0.7,2.3-2.6,1.6-4.1C340,52.2,339.2,50.5,338.4,48.9z"/>
			<path class="st15" d="M-3.4,376.6c1.9,1.1,3.7,2.2,5.6,3.3c1.9,1.1,3.8,2.1,5.7,3.2c1.9,1,3.8,2.1,5.8,3c1.9,1,3.9,2,5.9,2.9
				c2,0.9,3.9,1.9,5.9,2.8c2,0.9,4,1.8,6,2.6c2,0.9,4,1.7,6.1,2.5c2,0.8,4.1,1.6,6.2,2.3c2.1,0.8,4.1,1.5,6.2,2.2
				c2.1,0.7,4.2,1.4,6.3,2c2.1,0.7,4.2,1.3,6.4,1.9c2.1,0.6,4.3,1.2,6.4,1.7c0.3,0.1,0.5,0.1,0.8,0.1c1.4,0,2.7-0.9,3-2.3
				c0.4-1.7-0.6-3.4-2.3-3.8c-2.1-0.5-4.2-1.1-6.3-1.7c-2.1-0.6-4.2-1.2-6.2-1.8c-2.1-0.6-4.1-1.3-6.2-2c-2-0.7-4.1-1.4-6.1-2.1
				c-2-0.7-4-1.5-6-2.3c-2-0.8-4-1.6-5.9-2.4c-2-0.8-3.9-1.7-5.9-2.6c-1.9-0.9-3.9-1.8-5.8-2.7c-1.9-0.9-3.8-1.9-5.7-2.8
				c-1.9-1-3.8-2-5.6-3c-1.9-1-3.7-2-5.6-3.1c-1.8-1.1-3.7-2.1-5.5-3.2c-1.8-1.1-3.6-2.2-5.4-3.4c-1.8-1.1-3.5-2.3-5.3-3.5
				c-1.8-1.2-3.5-2.4-5.2-3.6c-1.7-1.2-3.4-2.5-5.1-3.7c-1.7-1.3-3.4-2.5-5-3.9c-1.4-1.1-3.3-0.8-4.4,0.5c-1.1,1.4-0.8,3.3,0.5,4.4
				c1.7,1.3,3.4,2.6,5.1,3.9c1.7,1.3,3.5,2.6,5.2,3.8c1.8,1.3,3.5,2.5,5.3,3.7c1.8,1.2,3.6,2.4,5.4,3.6
				C-7.1,374.3-5.2,375.5-3.4,376.6z"/>
			<path class="st15" d="M360.5,145.8c0-1.8,0-3.7-0.1-5.5c0-1.9-0.1-3.8-0.2-5.7c-0.1-1.9-0.2-3.8-0.4-5.7
				c-0.1-1.9-0.3-3.8-0.5-5.7c-0.2-1.9-0.4-3.8-0.6-5.6c-0.2-1.9-0.5-3.7-0.8-5.6c-0.3-1.9-0.6-3.7-0.9-5.5
				c-0.3-1.8-0.7-3.7-1.1-5.5c-0.4-1.8-0.8-3.6-1.2-5.4c-0.4-1.8-0.9-3.6-1.3-5.4c-0.5-1.8-0.9-3.6-1.4-5.3c-0.5-1.8-1-3.5-1.6-5.3
				c-0.5-1.6-2.3-2.6-3.9-2.1c-1.6,0.5-2.6,2.3-2.1,3.9c0.5,1.7,1,3.4,1.5,5.1c0.5,1.7,1,3.5,1.4,5.2c0.4,1.7,0.9,3.5,1.3,5.2
				c0.4,1.8,0.8,3.5,1.2,5.3c0.4,1.8,0.7,3.6,1,5.3c0.3,1.8,0.6,3.6,0.9,5.4c0.3,1.8,0.5,3.6,0.8,5.4c0.2,1.8,0.4,3.6,0.6,5.5
				c0.2,1.8,0.3,3.7,0.5,5.5c0.1,1.8,0.3,3.7,0.4,5.6c0.1,1.9,0.2,3.7,0.2,5.6c0,1.9,0.1,3.7,0.1,5.6c0,0.1,0,0.2,0.1,0.3v123.4
				c0,1.7,1.4,3.1,3.1,3.1s3.1-1.4,3.1-3.1V146.1C360.6,146,360.5,145.9,360.5,145.8z"/>
			<path class="st15" d="M334.6,345.4c-1.7,0-3.1,1.4-3.1,3.1v11.2c0,1.7,1.4,3.1,3.1,3.1s3.1-1.4,3.1-3.1v-11.2
				C337.7,346.8,336.3,345.4,334.6,345.4z"/>
			<path class="st15" d="M334.6,199.2c-1.7,0-3.1,1.4-3.1,3.1V326c0,1.7,1.4,3.1,3.1,3.1s3.1-1.4,3.1-3.1V202.3
				C337.7,200.6,336.3,199.2,334.6,199.2z"/>
			<path class="st15" d="M312.1,277.9c-1.7,0-3.1,1.4-3.1,3.1v112.5c0,1.7,1.4,3.1,3.1,3.1s3.1-1.4,3.1-3.1V281
				C315.2,279.3,313.8,277.9,312.1,277.9z"/>
			<path class="st15" d="M266.6,412.9c-1.7,0-3.1,1.4-3.1,3.1v33.7c0,1.7,1.4,3.1,3.1,3.1s3.1-1.4,3.1-3.1V416
				C269.8,414.3,268.4,412.9,266.6,412.9z"/>
			<path class="st15" d="M266.6,232.9c-1.7,0-3.1,1.4-3.1,3.1v146.2c0,1.7,1.4,3.1,3.1,3.1s3.1-1.4,3.1-3.1V236
				C269.8,234.3,268.4,232.9,266.6,232.9z"/>
			<path class="st15" d="M220.9,277.9c-1.7,0-3.1,1.4-3.1,3.1v191.2c0,1.7,1.4,3.1,3.1,3.1c1.7,0,3.1-1.4,3.1-3.1V281
				C224.1,279.3,222.7,277.9,220.9,277.9z"/>
			<path class="st15" d="M220.9,210.4c-1.7,0-3.1,1.4-3.1,3.1v45c0,1.7,1.4,3.1,3.1,3.1c1.7,0,3.1-1.4,3.1-3.1v-45
				C224.1,211.8,222.7,210.4,220.9,210.4z"/>
			<path class="st15" d="M198.3,322.9c-1.7,0-3.1,1.4-3.1,3.1v168.7c0,1.7,1.4,3.1,3.1,3.1c1.7,0,3.1-1.4,3.1-3.1V326
				C201.4,324.3,200,322.9,198.3,322.9z"/>
		</g>
	</g>
</g>
</svg>
